<svg width="30" height="30" viewBox="0 0 30 30" fill="none" xmlns="http://www.w3.org/2000/svg">
<path d="M12.5806 6.29032C12.5806 2.82195 9.75869 0 6.29032 0C2.82195 0 0 2.82195 0 6.29032C0 9.75869 2.82195 12.5806 6.29032 12.5806C9.75869 12.5806 12.5806 9.75869 12.5806 6.29032ZM0.967742 6.29032C0.967742 3.35567 3.35567 0.967742 6.29032 0.967742C9.22497 0.967742 11.6129 3.35567 11.6129 6.29032C11.6129 9.22497 9.22497 11.6129 6.29032 11.6129C3.35567 11.6129 0.967742 9.22497 0.967742 6.29032Z" fill="url(#paint0_linear)"/>
<path d="M6.29024 4.83882C6.55674 4.83882 6.77411 5.05618 6.77411 5.32269H7.74185C7.74185 4.69281 7.33595 4.1605 6.77411 3.96015V3.38721H5.80637V3.96015C5.24453 4.1605 4.83862 4.69281 4.83862 5.32269C4.83862 6.12292 5.49001 6.7743 6.29024 6.7743C6.55674 6.7743 6.77411 6.99167 6.77411 7.25818C6.77411 7.52468 6.55674 7.74205 6.29024 7.74205C6.02373 7.74205 5.80637 7.52468 5.80637 7.25818H4.83862C4.83862 7.88806 5.24453 8.42036 5.80637 8.62072V9.19366H6.77411V8.62072C7.33595 8.42036 7.74185 7.88806 7.74185 7.25818C7.74185 6.45795 7.09047 5.80656 6.29024 5.80656C6.02373 5.80656 5.80637 5.5892 5.80637 5.32269C5.80637 5.05618 6.02373 4.83882 6.29024 4.83882Z" fill="url(#paint1_linear)"/>
<path d="M6.29021 2.90329C8.15789 2.90329 9.67731 4.42271 9.67731 6.29039C9.67731 7.0462 9.43065 7.76374 8.96355 8.36479L9.72763 8.95853C10.3277 8.18571 10.6451 7.26356 10.6451 6.29039C10.6451 3.88946 8.69114 1.93555 6.29021 1.93555C5.31704 1.93555 4.39489 2.25285 3.62207 2.85296L4.2158 3.61705C4.81686 3.14995 5.5344 2.90329 6.29021 2.90329Z" fill="url(#paint2_linear)"/>
<path d="M8.95853 9.72763L8.36479 8.96355C7.76373 9.43065 7.0462 9.67731 6.29038 9.67731C4.42271 9.67731 2.90329 8.15789 2.90329 6.29021C2.90329 5.5344 3.14995 4.81686 3.61705 4.2158L2.85296 3.62207C2.25285 4.39489 1.93555 5.31704 1.93555 6.29021C1.93555 8.69114 3.88946 10.6451 6.29038 10.6451C7.26356 10.6451 8.1857 10.3277 8.95853 9.72763Z" fill="url(#paint3_linear)"/>
<path d="M27.0968 8.70968H26.129V4.83871H25.1613V2.90323H22.7419V0H21.7742V2.90323H19.3548V4.83871H18.3871V8.70968H17.4194V15.4839H16.4516V12.5806H15.4839V10.6452H14.0323V8.22581H13.0645V10.6452H11.6129V12.5806H10.6452V15.4839H8.70969V29.0323H7.74194V30H28.0645V29.0323H27.0968V8.70968ZM20.3226 3.87097H24.1936V4.83871H20.3226V3.87097ZM19.3548 5.80645H25.1613V8.70968H24.1936V6.77419H23.2258V8.70968H21.2903V6.77419H20.3226V8.70968H19.3548V5.80645ZM26.129 9.67742V29.0323H24.6774V24.1935H19.8387V29.0323H18.3871V9.67742H26.129ZM23.7097 29.0323H20.8065V25.1613H23.7097V29.0323ZM12.5807 11.6129H14.5161V12.5806H12.5807V11.6129ZM11.6129 13.5484H15.4839V15.4839H14.0323V14.5161H13.0645V15.4839H11.6129V13.5484ZM9.67743 16.4516H17.4194V29.0323H16.4516V17.4194H15.4839V29.0323H14.0323V17.4194H13.0645V29.0323H11.6129V17.4194H10.6452V29.0323H9.67743V16.4516Z" fill="url(#paint4_linear)"/>
<path d="M19.3547 10.645H20.3225V11.6128H19.3547V10.645Z" fill="url(#paint5_linear)"/>
<path d="M21.7742 10.645H22.7419V11.6128H21.7742V10.645Z" fill="url(#paint6_linear)"/>
<path d="M24.1936 10.645H25.1613V11.6128H24.1936V10.645Z" fill="url(#paint7_linear)"/>
<path d="M19.3547 13.5483H20.3225V14.5161H19.3547V13.5483Z" fill="url(#paint8_linear)"/>
<path d="M21.7742 13.5483H22.7419V14.5161H21.7742V13.5483Z" fill="url(#paint9_linear)"/>
<path d="M24.1936 13.5483H25.1613V14.5161H24.1936V13.5483Z" fill="url(#paint10_linear)"/>
<path d="M19.3547 16.4517H20.3225V17.4194H19.3547V16.4517Z" fill="url(#paint11_linear)"/>
<path d="M21.7742 16.4517H22.7419V17.4194H21.7742V16.4517Z" fill="url(#paint12_linear)"/>
<path d="M24.1936 16.4517H25.1613V17.4194H24.1936V16.4517Z" fill="url(#paint13_linear)"/>
<path d="M19.3547 19.355H20.3225V20.3227H19.3547V19.355Z" fill="url(#paint14_linear)"/>
<path d="M21.7742 19.355H22.7419V20.3227H21.7742V19.355Z" fill="url(#paint15_linear)"/>
<path d="M24.1936 19.355H25.1613V20.3227H24.1936V19.355Z" fill="url(#paint16_linear)"/>
<path d="M19.3547 22.2583H20.3225V23.226H19.3547V22.2583Z" fill="url(#paint17_linear)"/>
<path d="M21.7742 22.2583H22.7419V23.226H21.7742V22.2583Z" fill="url(#paint18_linear)"/>
<path d="M24.1936 22.2583H25.1613V23.226H24.1936V22.2583Z" fill="url(#paint19_linear)"/>
<path d="M0 14.5161H0.967742V15.4839H0V14.5161Z" fill="url(#paint20_linear)"/>
<path d="M0 16.4517H0.967742V22.2581H0V16.4517Z" fill="url(#paint21_linear)"/>
<path d="M2.90332 17.9033H3.87106V18.8711H2.90332V17.9033Z" fill="url(#paint22_linear)"/>
<path d="M2.90332 19.8389H3.87106V25.6453H2.90332V19.8389Z" fill="url(#paint23_linear)"/>
<path d="M5.8064 14.5161H6.77414V15.4839H5.8064V14.5161Z" fill="url(#paint24_linear)"/>
<path d="M5.8064 16.4517H6.77414V22.2581H5.8064V16.4517Z" fill="url(#paint25_linear)"/>
<path d="M29.0322 29.0322H30V30H29.0322V29.0322Z" fill="url(#paint26_linear)"/>
<path d="M5.8064 29.0322H6.77414V30H5.8064V29.0322Z" fill="url(#paint27_linear)"/>
<defs>
<linearGradient id="paint0_linear" x1="-0.666524" y1="2.9879" x2="14.4461" y2="3.6797" gradientUnits="userSpaceOnUse">
<stop stop-color="#CC18BC"/>
<stop offset="1" stop-color="#FF8340"/>
</linearGradient>
<linearGradient id="paint1_linear" x1="4.68481" y1="4.76624" x2="8.17782" y2="4.84619" gradientUnits="userSpaceOnUse">
<stop stop-color="#CC18BC"/>
<stop offset="1" stop-color="#FF8340"/>
</linearGradient>
<linearGradient id="paint2_linear" x1="3.24999" y1="3.6035" x2="11.6864" y2="3.98969" gradientUnits="userSpaceOnUse">
<stop stop-color="#CC18BC"/>
<stop offset="1" stop-color="#FF8340"/>
</linearGradient>
<linearGradient id="paint3_linear" x1="1.56347" y1="5.29003" x2="9.9999" y2="5.67621" gradientUnits="userSpaceOnUse">
<stop stop-color="#CC18BC"/>
<stop offset="1" stop-color="#FF8340"/>
</linearGradient>
<linearGradient id="paint4_linear" x1="6.66525" y1="7.125" x2="31.1056" y2="7.88288" gradientUnits="userSpaceOnUse">
<stop stop-color="#CC18BC"/>
<stop offset="1" stop-color="#FF8340"/>
</linearGradient>
<linearGradient id="paint5_linear" x1="19.3035" y1="10.8749" x2="20.466" y2="10.9281" gradientUnits="userSpaceOnUse">
<stop stop-color="#CC18BC"/>
<stop offset="1" stop-color="#FF8340"/>
</linearGradient>
<linearGradient id="paint6_linear" x1="21.7229" y1="10.8749" x2="22.8854" y2="10.9281" gradientUnits="userSpaceOnUse">
<stop stop-color="#CC18BC"/>
<stop offset="1" stop-color="#FF8340"/>
</linearGradient>
<linearGradient id="paint7_linear" x1="24.1423" y1="10.8749" x2="25.3048" y2="10.9281" gradientUnits="userSpaceOnUse">
<stop stop-color="#CC18BC"/>
<stop offset="1" stop-color="#FF8340"/>
</linearGradient>
<linearGradient id="paint8_linear" x1="19.3035" y1="13.7782" x2="20.466" y2="13.8314" gradientUnits="userSpaceOnUse">
<stop stop-color="#CC18BC"/>
<stop offset="1" stop-color="#FF8340"/>
</linearGradient>
<linearGradient id="paint9_linear" x1="21.7229" y1="13.7782" x2="22.8854" y2="13.8314" gradientUnits="userSpaceOnUse">
<stop stop-color="#CC18BC"/>
<stop offset="1" stop-color="#FF8340"/>
</linearGradient>
<linearGradient id="paint10_linear" x1="24.1423" y1="13.7782" x2="25.3048" y2="13.8314" gradientUnits="userSpaceOnUse">
<stop stop-color="#CC18BC"/>
<stop offset="1" stop-color="#FF8340"/>
</linearGradient>
<linearGradient id="paint11_linear" x1="19.3035" y1="16.6815" x2="20.466" y2="16.7347" gradientUnits="userSpaceOnUse">
<stop stop-color="#CC18BC"/>
<stop offset="1" stop-color="#FF8340"/>
</linearGradient>
<linearGradient id="paint12_linear" x1="21.7229" y1="16.6815" x2="22.8854" y2="16.7347" gradientUnits="userSpaceOnUse">
<stop stop-color="#CC18BC"/>
<stop offset="1" stop-color="#FF8340"/>
</linearGradient>
<linearGradient id="paint13_linear" x1="24.1423" y1="16.6815" x2="25.3048" y2="16.7347" gradientUnits="userSpaceOnUse">
<stop stop-color="#CC18BC"/>
<stop offset="1" stop-color="#FF8340"/>
</linearGradient>
<linearGradient id="paint14_linear" x1="19.3035" y1="19.5848" x2="20.466" y2="19.638" gradientUnits="userSpaceOnUse">
<stop stop-color="#CC18BC"/>
<stop offset="1" stop-color="#FF8340"/>
</linearGradient>
<linearGradient id="paint15_linear" x1="21.7229" y1="19.5848" x2="22.8854" y2="19.638" gradientUnits="userSpaceOnUse">
<stop stop-color="#CC18BC"/>
<stop offset="1" stop-color="#FF8340"/>
</linearGradient>
<linearGradient id="paint16_linear" x1="24.1423" y1="19.5848" x2="25.3048" y2="19.638" gradientUnits="userSpaceOnUse">
<stop stop-color="#CC18BC"/>
<stop offset="1" stop-color="#FF8340"/>
</linearGradient>
<linearGradient id="paint17_linear" x1="19.3035" y1="22.4881" x2="20.466" y2="22.5414" gradientUnits="userSpaceOnUse">
<stop stop-color="#CC18BC"/>
<stop offset="1" stop-color="#FF8340"/>
</linearGradient>
<linearGradient id="paint18_linear" x1="21.7229" y1="22.4881" x2="22.8854" y2="22.5414" gradientUnits="userSpaceOnUse">
<stop stop-color="#CC18BC"/>
<stop offset="1" stop-color="#FF8340"/>
</linearGradient>
<linearGradient id="paint19_linear" x1="24.1423" y1="22.4881" x2="25.3048" y2="22.5414" gradientUnits="userSpaceOnUse">
<stop stop-color="#CC18BC"/>
<stop offset="1" stop-color="#FF8340"/>
</linearGradient>
<linearGradient id="paint20_linear" x1="-0.0512711" y1="14.746" x2="1.11124" y2="14.7992" gradientUnits="userSpaceOnUse">
<stop stop-color="#CC18BC"/>
<stop offset="1" stop-color="#FF8340"/>
</linearGradient>
<linearGradient id="paint21_linear" x1="-0.0512711" y1="17.8307" x2="1.11361" y2="17.8396" gradientUnits="userSpaceOnUse">
<stop stop-color="#CC18BC"/>
<stop offset="1" stop-color="#FF8340"/>
</linearGradient>
<linearGradient id="paint22_linear" x1="2.85205" y1="18.1332" x2="4.01456" y2="18.1864" gradientUnits="userSpaceOnUse">
<stop stop-color="#CC18BC"/>
<stop offset="1" stop-color="#FF8340"/>
</linearGradient>
<linearGradient id="paint23_linear" x1="2.85205" y1="21.2179" x2="4.01693" y2="21.2268" gradientUnits="userSpaceOnUse">
<stop stop-color="#CC18BC"/>
<stop offset="1" stop-color="#FF8340"/>
</linearGradient>
<linearGradient id="paint24_linear" x1="5.75513" y1="14.746" x2="6.91764" y2="14.7992" gradientUnits="userSpaceOnUse">
<stop stop-color="#CC18BC"/>
<stop offset="1" stop-color="#FF8340"/>
</linearGradient>
<linearGradient id="paint25_linear" x1="5.75513" y1="17.8307" x2="6.92" y2="17.8396" gradientUnits="userSpaceOnUse">
<stop stop-color="#CC18BC"/>
<stop offset="1" stop-color="#FF8340"/>
</linearGradient>
<linearGradient id="paint26_linear" x1="28.981" y1="29.2621" x2="30.1435" y2="29.3153" gradientUnits="userSpaceOnUse">
<stop stop-color="#CC18BC"/>
<stop offset="1" stop-color="#FF8340"/>
</linearGradient>
<linearGradient id="paint27_linear" x1="5.75513" y1="29.2621" x2="6.91764" y2="29.3153" gradientUnits="userSpaceOnUse">
<stop stop-color="#CC18BC"/>
<stop offset="1" stop-color="#FF8340"/>
</linearGradient>
</defs>
</svg>
