<svg width="30" height="30" viewBox="0 0 30 30" fill="none" xmlns="http://www.w3.org/2000/svg">
<path d="M28.8526 11.1848L28.1987 10.2987L25.9038 2.38072C25.5128 1.04328 24.5128 0.157131 23.3974 0.148926H7.00641C5.89103 0.148926 4.89103 1.04328 4.5 2.38072L2.23718 10.2002L1.29487 11.3161C0.474359 12.2105 0 13.5233 0 14.9017V26.4382C0.00641026 28.3253 1.20513 29.8515 2.67949 29.8515H4.37179C5.84615 29.8515 7.04487 28.3253 7.05128 26.4382V24.7643H22.9487V26.4382C22.9551 28.3253 24.1538 29.8515 25.6282 29.8515H27.3205C28.7949 29.8515 29.9936 28.3253 30 26.4382V14.5982C29.9936 13.31 29.5833 12.0792 28.8526 11.1848ZM5.70513 2.93867C5.91026 2.24123 6.42949 1.78995 7.00641 1.78995H23.4038C23.9808 1.78995 24.5 2.24944 24.7051 2.93867L26.7051 9.83098H25.2115C24.859 6.75405 22.6218 4.62893 20.2179 5.08841C18.3013 5.44944 16.7949 7.37764 16.5128 9.83098H3.70513L5.70513 2.93867ZM23.9038 9.83098H17.8077C18.1603 7.67303 19.8141 6.29457 21.5 6.74585C22.7051 7.07405 23.6474 8.28021 23.9038 9.83098ZM5.76923 26.4382C5.76282 27.4228 5.14103 28.2105 4.37179 28.2105H2.67949C1.91026 28.2105 1.28846 27.4228 1.28205 26.4382V24.2884C1.66667 24.6084 2.17308 24.7643 2.67949 24.7643H5.76923V26.4382ZM28.718 26.4382C28.7115 27.4228 28.0897 28.2105 27.3205 28.2105H25.6282C24.859 28.2105 24.2372 27.4146 24.2308 26.4382V24.7643H27.3205C27.8269 24.7643 28.3333 24.6084 28.718 24.2884V26.4382ZM27.3205 23.1233H2.67949C1.91667 23.1315 1.28846 22.352 1.28205 21.3674V14.9017C1.28205 13.9992 1.59615 13.1376 2.13462 12.5551C2.14103 12.5469 2.15385 12.5305 2.16026 12.5223L3.03205 11.472H27.3077L27.9231 12.3171C27.9295 12.3335 27.9487 12.3417 27.9551 12.3582C28.4359 12.9407 28.7115 13.753 28.7115 14.5982V21.3674H28.718C28.7115 22.3438 28.0833 23.1315 27.3205 23.1233Z" fill="url(#paint0_linear)"/>
<path d="M8.46141 14.7539H3.65372C3.30116 14.7539 3.0127 15.1231 3.0127 15.5744V19.8411C3.0127 20.2924 3.30116 20.6616 3.65372 20.6616H8.46141C8.81398 20.6616 9.10244 20.2924 9.10244 19.8411V15.5744C9.10244 15.1231 8.81398 14.7539 8.46141 14.7539ZM7.82039 19.0206H4.29475V16.3949H7.82039V19.0206Z" fill="url(#paint1_linear)"/>
<path d="M26.3462 14.7539H21.5385C21.1859 14.7539 20.8975 15.1231 20.8975 15.5744V19.8411C20.8975 20.2924 21.1859 20.6616 21.5385 20.6616H26.3462C26.6987 20.6616 26.9872 20.2924 26.9872 19.8411V15.5744C26.9872 15.1231 26.6987 14.7539 26.3462 14.7539ZM25.7052 19.0206H22.1795V16.3949H25.7052V19.0206Z" fill="url(#paint2_linear)"/>
<path d="M18.096 18.2002H11.9037C11.5512 18.2002 11.2627 18.5694 11.2627 19.0207C11.2627 19.472 11.5512 19.8412 11.9037 19.8412H18.096C18.4486 19.8412 18.7371 19.472 18.7371 19.0207C18.7371 18.5694 18.4486 18.2002 18.096 18.2002Z" fill="url(#paint3_linear)"/>
<path d="M18.096 15.6562H11.9037C11.5512 15.6562 11.2627 16.0255 11.2627 16.4768C11.2627 16.928 11.5512 17.2973 11.9037 17.2973H18.096C18.4486 17.2973 18.7371 16.928 18.7371 16.4768C18.7371 16.0255 18.4486 15.6562 18.096 15.6562Z" fill="url(#paint4_linear)"/>
<defs>
<linearGradient id="paint0_linear" x1="-1.5894" y1="7.20328" x2="34.4469" y2="8.8694" gradientUnits="userSpaceOnUse">
<stop stop-color="#CC18BC"/>
<stop offset="1" stop-color="#FF8340"/>
</linearGradient>
<linearGradient id="paint1_linear" x1="2.69006" y1="16.157" x2="10.0045" y2="16.5021" gradientUnits="userSpaceOnUse">
<stop stop-color="#CC18BC"/>
<stop offset="1" stop-color="#FF8340"/>
</linearGradient>
<linearGradient id="paint2_linear" x1="20.5748" y1="16.157" x2="27.8892" y2="16.5021" gradientUnits="userSpaceOnUse">
<stop stop-color="#CC18BC"/>
<stop offset="1" stop-color="#FF8340"/>
</linearGradient>
<linearGradient id="paint3_linear" x1="10.8667" y1="18.5899" x2="19.4893" y2="20.3877" gradientUnits="userSpaceOnUse">
<stop stop-color="#CC18BC"/>
<stop offset="1" stop-color="#FF8340"/>
</linearGradient>
<linearGradient id="paint4_linear" x1="10.8667" y1="16.046" x2="19.4893" y2="17.8438" gradientUnits="userSpaceOnUse">
<stop stop-color="#CC18BC"/>
<stop offset="1" stop-color="#FF8340"/>
</linearGradient>
</defs>
</svg>
