<svg width="81" height="68" viewBox="0 0 81 68" fill="none" xmlns="http://www.w3.org/2000/svg">
<path d="M61.9889 54.904H19.8766C19.9097 54.5259 19.9593 54.0575 20.0333 53.5233C20.2364 52.0575 20.62 50.12 21.3379 48.1961C22.7374 44.4457 25.2794 41.015 30.0194 40.7997C32.5754 43.9202 36.7254 46.2588 40.8965 46.2588C45.0871 46.2588 49.0694 43.872 51.5979 40.726C54.3012 40.8218 56.2512 41.7221 57.6852 42.9946C59.2234 44.3597 60.2307 46.2103 60.882 48.1318C61.5323 50.0503 61.809 51.9848 61.9209 53.451C61.9643 54.0199 61.9826 54.5141 61.9889 54.904Z" stroke="url(#paint0_linear)" stroke-width="2"/>
<path d="M36.5 19.5L32.5 24V29L36.5 36.5L41.5 38.5L46.5 34.5L49.5 27.5L48.5 22L42.5 18.5L36.5 19.5Z" fill="url(#paint1_linear)"/>
<path d="M46.7603 33.9058C48.413 31.2198 49.3961 28.0243 49.3961 25.9399C49.3961 21.9745 45.7095 18.547 40.8883 18.5442L46.7603 33.9058ZM46.7603 33.9058C45.9413 35.237 44.989 36.3906 43.968 37.2017M46.7603 33.9058L43.968 37.2017M43.968 37.2017C42.9477 38.0121 41.9098 38.4424 40.8883 38.4424M43.968 37.2017L40.8883 38.4424M40.8883 38.4424C39.8693 38.4424 38.8329 38.0123 37.8133 37.2016M40.8883 38.4424L37.8133 37.2016M37.8133 37.2016C36.793 36.3903 35.8411 35.2363 35.0222 33.9049M37.8133 37.2016L35.0222 33.9049M35.0222 33.9049C33.3697 31.2183 32.386 28.0228 32.386 25.9399M35.0222 33.9049L32.386 25.9399M32.386 25.9399C32.386 21.9712 36.0731 18.5444 40.8878 18.5442L32.386 25.9399Z" stroke="url(#paint2_linear)" stroke-width="2"/>
<path d="M50.9113 20.3628V21.3592L51.9076 21.3628C52.5212 21.365 53.0247 21.5106 53.3402 21.6928C53.5765 21.8293 53.628 21.9298 53.6373 21.9544L53.663 35.75H50.2654V35.0825H51.9859H52.9859V34.0825V31.2528V30.2528H51.9859C51.9236 30.2528 51.8706 30.2579 51.8303 30.2633C51.2432 30.2536 50.7604 30.1118 50.4533 29.9349C50.2127 29.7963 50.1612 29.6938 50.1521 29.6696V22.1082C50.1527 22.1064 50.1534 22.1047 50.154 22.1029C50.167 22.0669 50.1811 22.0229 50.1933 21.9723L50.2212 21.8567V21.7378V19.5625C50.2212 19.7769 50.2794 19.1104 50.2201 18.6008C50.1493 17.9925 49.9286 17.2052 49.3396 16.4332C48.1467 14.8698 45.6868 13.6593 40.9216 13.6593C36.1529 13.6593 33.6676 14.8717 32.4361 16.4164C31.2163 17.9465 31.4588 19.5767 31.4588 19.5625V21.6278V21.8213L31.531 22.0009C31.544 22.0333 31.5568 22.0621 31.5675 22.0856C31.571 22.0931 31.5744 22.1005 31.5777 22.1074V29.513C31.5647 29.5404 31.507 29.6329 31.2878 29.7576C30.9724 29.9369 30.4704 30.0795 29.8627 30.0795C29.2551 30.0795 28.755 29.9369 28.4415 29.7582C28.2229 29.6335 28.1659 29.541 28.1533 29.5139V21.9837C28.1652 21.9569 28.2208 21.8639 28.4407 21.7383C28.7428 21.5659 29.2204 21.4271 29.8036 21.4182C29.8384 21.4223 29.8841 21.426 29.9374 21.426H30.9374V20.426V18.5725C30.9374 18.5716 30.9374 18.5702 30.9374 18.5683C30.9365 18.4722 30.9254 17.1638 32.0329 15.8655C33.1426 14.5645 35.5629 13.0605 40.9216 13.0605C46.2832 13.0605 48.7049 14.5646 49.8153 15.8657C50.9233 17.164 50.9121 18.4723 50.9113 18.5683C50.9113 18.5702 50.9113 18.5716 50.9113 18.5725V20.3628ZM53.6391 21.9601C53.6391 21.9602 53.639 21.9597 53.6388 21.9587L53.6391 21.9601ZM54.637 21.9385L53.6373 21.9404C53.6373 21.9398 53.6373 21.9392 53.6373 21.9385H54.637ZM52.1264 32.2408C52.1311 32.2399 52.1284 32.2405 52.1246 32.2411L52.1264 32.2408ZM30.0671 19.4361L30.0665 19.4361L30.0671 19.4361ZM51.7517 30.2762C51.7517 30.2762 51.7536 30.2759 51.756 30.2755L51.7541 30.2758L51.7517 30.2762ZM31.581 29.5046C31.581 29.5046 31.5809 29.5052 31.5804 29.5064L31.581 29.5046ZM28.1501 29.5056C28.1502 29.5056 28.1504 29.5063 28.1507 29.5076L28.1501 29.5056ZM28.1505 21.9916C28.1504 21.9916 28.1506 21.9907 28.1512 21.9891C28.1508 21.9908 28.1505 21.9916 28.1505 21.9916Z" stroke="url(#paint3_linear)" stroke-width="2"/>
<defs>
<linearGradient id="paint0_linear" x1="16.4714" y1="43.5618" x2="68.8363" y2="50.1044" gradientUnits="userSpaceOnUse">
<stop stop-color="#CC18BC"/>
<stop offset="1" stop-color="#FF8340"/>
</linearGradient>
<linearGradient id="paint1_linear" x1="31.5993" y1="23.25" x2="52.0326" y2="24.0451" gradientUnits="userSpaceOnUse">
<stop stop-color="#CC18BC"/>
<stop offset="1" stop-color="#FF8340"/>
</linearGradient>
<linearGradient id="paint2_linear" x1="30.3788" y1="22.745" x2="53.2267" y2="23.653" gradientUnits="userSpaceOnUse">
<stop stop-color="#CC18BC"/>
<stop offset="1" stop-color="#FF8340"/>
</linearGradient>
<linearGradient id="paint3_linear" x1="25.6958" y1="17.9243" x2="58.7277" y2="19.6092" gradientUnits="userSpaceOnUse">
<stop stop-color="#CC18BC"/>
<stop offset="1" stop-color="#FF8340"/>
</linearGradient>
</defs>
</svg>
