<svg width="30" height="30" viewBox="0 0 30 30" fill="none" xmlns="http://www.w3.org/2000/svg">
<path d="M29.067 24.3072C28.714 24.3072 28.4278 24.504 28.4278 24.7467V28.8783C28.4278 29.0121 28.2695 29.121 28.0749 29.121H24.6388V20.4669C24.6388 20.2242 24.3526 20.0274 23.9996 20.0274C23.6466 20.0274 23.3604 20.2242 23.3604 20.4669V29.121H16.4412L18.4477 27.6035C18.6669 27.4376 18.7703 27.2014 18.7242 26.9714C18.7233 26.967 18.7223 26.9625 18.7212 26.958L16.8102 19.1963L17.325 18.6635C17.6097 18.8024 17.829 18.9363 18.2402 18.9363C18.6585 18.9363 19.0496 18.7753 19.242 18.5104V18.5103L21.2577 15.7329L25.8494 16.9555C26.0155 17.0045 28.4277 17.7513 28.4277 19.7234V22.6958C28.4276 22.9385 28.7138 23.1353 29.0669 23.1353C29.4199 23.1353 29.7061 22.9385 29.7061 22.6958V19.7234C29.7061 17.1251 26.4701 16.1806 26.3323 16.1416C26.3283 16.1405 26.3242 16.1394 26.3202 16.1383L18.678 14.1036V12.8713C19.8918 12.2224 20.7334 11.2603 20.9447 10.1627C21.5499 10.1334 22.1115 9.97805 22.5701 9.70693C23.169 9.35285 23.5126 8.83752 23.5126 8.2933C23.5126 7.84166 23.2756 7.41041 22.8532 7.07438V5.44647C22.8531 2.4433 19.2993 0 14.9311 0C10.5628 0 7.00901 2.4433 7.00901 5.44647V7.11703C6.58211 7.44967 6.34995 7.85912 6.34995 8.29324C6.34995 8.83764 6.69342 9.35291 7.29248 9.70705C7.75075 9.97805 8.31197 10.1333 8.917 10.1626C9.12998 11.2808 9.99614 12.2787 11.3133 12.9364V14.1036L3.67944 16.1382C3.67543 16.1393 3.67143 16.1404 3.66742 16.1415C3.52961 16.1805 0.293701 17.125 0.293701 19.7232V28.8782C0.293701 29.4967 1.02555 29.9998 1.92512 29.9998H8.01521C8.36822 29.9998 8.65441 29.8031 8.65441 29.5604C8.65441 29.3177 8.36822 29.1209 8.01521 29.1209H6.63989V20.4669C6.63989 20.2242 6.3537 20.0274 6.00069 20.0274C5.64768 20.0274 5.36149 20.2242 5.36149 20.4669V29.121H1.92521C1.73063 29.121 1.57228 29.0122 1.57228 28.8784V19.7233C1.57228 17.7446 4.00066 16.9995 4.14981 16.9557L8.73793 15.7328L10.7537 18.5103C10.9466 18.7759 11.3382 18.9363 11.7557 18.9363C12.1648 18.9363 12.382 18.8045 12.6708 18.6635L13.1857 19.1963L11.2748 26.9581C11.2737 26.9625 11.2728 26.9669 11.2718 26.9713C11.2256 27.2013 11.329 27.4376 11.5483 27.6035L13.5548 29.1211H10.9984C10.6454 29.1211 10.3592 29.3179 10.3592 29.5605C10.3592 29.8032 10.6454 30 10.9984 30H28.075C28.9746 30 29.7064 29.4968 29.7064 28.8784V24.7467C29.7062 24.504 29.42 24.3072 29.067 24.3072ZM20.0603 15.4142L18.1811 18.0035C18.1344 17.9807 17.1385 17.4942 15.9211 16.8999C16.4494 16.4516 15.8314 16.976 18.2423 14.9302L20.0603 15.4142ZM16.282 18.1543L15.7947 18.6586H14.2007L13.7133 18.1543L14.9977 17.5271L16.282 18.1543ZM12.5917 14.2454V13.4229C13.3682 13.6382 14.1982 13.7379 15.0087 13.7379C15.8467 13.7379 16.6686 13.6151 17.3995 13.3954V14.2489L14.9977 16.2871L12.5917 14.2454ZM22.2341 8.2933C22.234 8.58117 22.0527 8.85357 21.7365 9.04055C21.5274 9.16418 21.2749 9.24322 20.9983 9.27416V7.31262C21.733 7.39465 22.2341 7.81359 22.2341 8.2933ZM8.86416 9.27416C8.12114 9.19125 7.62836 8.76891 7.62836 8.29324C7.62836 7.82344 8.19487 7.44105 8.86416 7.33471V9.27416ZM8.8985 6.43922C8.69489 6.45527 8.46154 6.49318 8.28759 6.53385V5.44647C8.28759 2.92793 11.2678 0.878965 14.9311 0.878965C18.5945 0.878965 21.5747 2.92793 21.5747 5.44647V6.50367C21.3889 6.46482 21.1962 6.43916 20.9984 6.42709C20.9984 6.00305 21.0038 6.08484 18.986 4.59346C18.6149 4.31936 18.0011 4.26193 17.534 4.47176C15.307 5.47189 12.5904 5.97434 10.0838 5.85059C9.53404 5.82229 9.03325 6.07125 8.8985 6.43922ZM10.1426 9.62016V6.87844V6.734C12.9019 6.8451 15.7948 6.28154 18.1318 5.25258C19.0572 5.93566 19.5583 6.29396 19.7199 6.43025C19.7199 6.77502 19.7199 9.22547 19.7199 9.6201C19.7199 11.4041 17.604 12.8589 15.0088 12.8589C12.0945 12.859 10.1426 11.3047 10.1426 9.62016ZM11.8144 18.0035L9.93521 15.4142L11.75 14.931L14.0716 16.9012C12.891 17.4776 11.9215 17.9511 11.8144 18.0035ZM12.5478 27.0529L14.398 19.5374H15.5972L17.4474 27.0529L14.9976 28.9058L12.5478 27.0529Z" fill="url(#paint0_linear)"/>
<defs>
<linearGradient id="paint0_linear" x1="-1.26459" y1="7.125" x2="34.0706" y2="8.71084" gradientUnits="userSpaceOnUse">
<stop stop-color="#CC18BC"/>
<stop offset="1" stop-color="#FF8340"/>
</linearGradient>
</defs>
</svg>
