<svg width="30" height="30" viewBox="0 0 30 30" fill="none" xmlns="http://www.w3.org/2000/svg">
<path d="M22.3003 12.0373L24.0629 11.9254C24.0659 11.9251 24.0691 11.9249 24.0723 11.9247C25.3284 11.8185 26.4559 11.1592 27.1659 10.1153L28.5593 8.06689C29.7722 6.28362 30.2421 4.12975 29.882 2.00226C29.8113 1.58442 29.598 1.19938 29.2817 0.918448C28.9651 0.637289 28.5582 0.471255 28.1357 0.451074C25.9837 0.347875 23.9066 1.0737 22.2852 2.49394L20.4226 4.12562C19.4734 4.95694 18.9552 6.15749 19.0005 7.41995C19.0008 7.42293 19.0008 7.42614 19.001 7.42935L19.1015 9.19588C19.1406 9.88455 18.8886 10.5641 18.4114 11.059L3.85951 26.0374C3.46996 26.4445 3.26877 27.0029 3.29326 27.6099C3.32027 28.2782 3.62628 28.9345 4.11197 29.3659C4.55074 29.7555 5.15384 29.9775 5.75672 29.9775C5.82126 29.9775 5.88581 29.975 5.95012 29.9697C6.5546 29.9213 7.08401 29.6544 7.44244 29.2154L20.5361 12.9482C20.9703 12.4129 21.6135 12.0808 22.3003 12.0373V12.0373ZM19.8371 12.3813L6.74457 28.6472C6.54453 28.8921 6.23691 29.043 5.87848 29.0717C5.45208 29.1058 5.01491 28.9636 4.70867 28.6917C4.40242 28.4194 4.20925 28.0016 4.19208 27.5734C4.17743 27.2136 4.28981 26.8896 4.50633 26.6635L19.0571 11.6862C19.7094 11.0099 20.0527 10.0836 19.9996 9.14474L19.8991 7.38279C19.865 6.39461 20.2713 5.45505 21.0145 4.80398L22.8771 3.1723C24.3227 1.90617 26.1753 1.25969 28.0929 1.35096C28.3112 1.36151 28.5213 1.44728 28.685 1.59268C28.8486 1.73784 28.9587 1.9369 28.9954 2.1527C29.3163 4.04949 28.8974 5.96944 27.8162 7.55915L26.4227 9.60775C25.8668 10.4251 24.9844 10.9418 24.0011 11.0264L22.2433 11.1378C21.3067 11.1975 20.4301 11.6502 19.8371 12.3813Z" fill="#fff"/>
<path d="M29.1693 25.9241L19.4123 17.0199C19.2287 16.8522 18.9445 16.8655 18.7769 17.0495C18.6098 17.2334 18.6231 17.5184 18.8067 17.6861L28.5612 26.5882C28.7933 26.8031 28.9249 27.1198 28.932 27.4798C28.9404 27.9082 28.7727 28.3368 28.4831 28.6269C28.1938 28.9168 27.7667 29.0854 27.3383 29.0767C26.9789 29.0696 26.6628 28.9377 26.4506 28.7077L17.7563 19.1437C17.589 18.9595 17.3045 18.9465 17.121 19.1139C16.9374 19.2815 16.9241 19.5666 17.0914 19.7505L25.7878 29.3168C26.17 29.7309 26.7143 29.9658 27.3206 29.9777C27.3364 29.9779 27.352 29.9782 27.3678 29.9782C28.0194 29.9782 28.671 29.7133 29.119 29.2643C29.5781 28.8042 29.8443 28.1307 29.831 27.4622C29.8191 26.8547 29.585 26.3093 29.1693 25.9241V25.9241Z" fill="#fff"/>
<path d="M5.42655 11.9521C6.17087 12.6392 7.1379 13.0309 8.14956 13.0552C8.15276 13.0554 8.15597 13.0554 8.15894 13.0554L9.925 13.0609C10.6135 13.063 11.2752 13.3558 11.7396 13.8629L12.5175 14.7185C12.6064 14.8162 12.7279 14.8657 12.8501 14.8657C12.9581 14.8657 13.0666 14.827 13.1527 14.7483C13.3365 14.5807 13.3498 14.2956 13.1825 14.1117L12.4033 13.2549C11.7689 12.5619 10.8666 12.1628 9.92798 12.1596L8.16673 12.1541C7.38418 12.1342 6.63596 11.834 6.0562 11.3081L0.938169 5.21209C0.885984 5.14971 0.889874 5.05936 0.947324 5.00179C0.986692 4.96212 1.03293 4.95639 1.05696 4.95639C1.08099 4.95639 1.12723 4.96212 1.16682 5.00179L5.82549 9.6698C6.286 10.1312 7.03536 10.1312 7.49587 9.66957L8.04336 9.12124V9.12101L9.01542 8.14705C9.01542 8.14705 9.01565 8.14705 9.01565 8.14682L9.01588 8.14659L9.56314 7.59827C10.0236 7.13685 10.0236 6.38603 9.56314 5.92462L4.90447 1.25684C4.84404 1.1963 4.84404 1.09746 4.90447 1.03691C4.96192 0.979351 5.0521 0.975453 5.11435 1.02774L11.1985 6.15601C11.7236 6.73667 12.0232 7.48658 12.0431 8.27043L12.0483 10.0354C12.0515 10.9756 12.45 11.8796 13.1426 12.5167L13.9762 13.2774C14.16 13.445 14.4443 13.4317 14.6116 13.2478C14.7787 13.0637 14.7654 12.7788 14.5818 12.6112L13.7496 11.8516C13.2422 11.3852 12.9501 10.722 12.9478 10.0324L12.9424 8.26286C12.9424 8.25965 12.9424 8.25644 12.9421 8.25323C12.9179 7.23959 12.5269 6.27068 11.8412 5.5249C11.8284 5.51091 11.8147 5.49761 11.8 5.48522L5.6932 0.338145C5.27114 -0.0177745 4.65865 0.00882775 4.26863 0.399606C3.85733 0.811711 3.85733 1.48204 4.26863 1.89392L8.9273 6.56192C9.03717 6.672 9.03717 6.85111 8.9273 6.96119L8.69773 7.19098L3.50554 1.98886C3.32999 1.81274 3.04526 1.81274 2.86971 1.98886C2.69415 2.16476 2.69415 2.45004 2.86971 2.62594L8.0619 7.82828L7.72544 8.16517L2.53325 2.96305C2.3577 2.78716 2.07297 2.78716 1.89741 2.96305C1.72163 3.13895 1.72163 3.42424 1.89741 3.60013L7.08938 8.80248L6.86004 9.03249C6.75017 9.14257 6.57142 9.14257 6.46155 9.03249L1.80266 4.36472C1.60353 4.1652 1.33871 4.05512 1.05696 4.05512C0.775204 4.05512 0.510388 4.1652 0.31126 4.36472C-0.078755 4.75549 -0.105076 5.36918 0.24992 5.79229L5.38718 11.9108C5.39931 11.9255 5.41259 11.9392 5.42655 11.9521Z" fill="#fff"/>
<defs>
<linearGradient id="paint0_linear" x1="1.87622" y1="7.45623" x2="33.9727" y2="8.78484" gradientUnits="userSpaceOnUse">
<stop stop-color="#CC18BC"/>
<stop offset="1" stop-color="#FF8340"/>
</linearGradient>
<linearGradient id="paint1_linear" x1="16.2929" y1="20.0078" x2="31.7391" y2="20.7031" gradientUnits="userSpaceOnUse">
<stop stop-color="#CC18BC"/>
<stop offset="1" stop-color="#FF8340"/>
</linearGradient>
<linearGradient id="paint2_linear" x1="-0.780071" y1="3.59763" x2="16.9129" y2="4.40483" gradientUnits="userSpaceOnUse">
<stop stop-color="#CC18BC"/>
<stop offset="1" stop-color="#FF8340"/>
</linearGradient>
</defs>
</svg>
