<svg width="30" height="30" viewBox="0 0 30 30" fill="none" xmlns="http://www.w3.org/2000/svg">
<path d="M29.6808 18.9363C29.1101 18.0267 27.961 17.7859 27.1198 18.3991L23.2913 21.1785L23.2802 12.5274L24.6103 13.879C24.8931 14.1663 25.2619 14.3245 25.6491 14.3245C25.6498 14.3245 25.6506 14.3245 25.6513 14.3245C26.0694 14.3238 26.4729 14.1338 26.7587 13.803C27.0362 13.4815 27.1818 13.0622 27.1686 12.622C27.1553 12.1818 26.9848 11.7735 26.6885 11.4724L24.1669 8.91011C23.9943 8.73468 23.7233 8.74428 23.5617 8.93153C23.4 9.11877 23.4088 9.41267 23.5814 9.58809L26.103 12.1504C26.2324 12.2819 26.3068 12.4601 26.3126 12.6522C26.3183 12.8444 26.2548 13.0275 26.1336 13.1678C26.007 13.3143 25.8353 13.3952 25.6501 13.3954C25.6497 13.3954 25.6494 13.3954 25.6491 13.3954C25.4801 13.3954 25.3192 13.3264 25.1957 13.2009C25.1957 13.2009 25.1957 13.2009 25.1957 13.2009L15.183 3.02636C15.018 2.85875 14.7613 2.859 14.5967 3.02725L4.6101 13.2322C4.48113 13.364 4.3125 13.4331 4.13531 13.4277C3.95812 13.422 3.79365 13.3417 3.67213 13.2017C3.55061 13.0618 3.48656 12.8789 3.49189 12.6867C3.49717 12.4945 3.57117 12.3161 3.70014 12.1843L14.4332 1.21663C14.6876 0.95661 15.0867 0.955974 15.3418 1.2153L21.6211 7.59614C21.7937 7.7715 22.0646 7.76197 22.2264 7.57472C22.388 7.38748 22.3792 7.09358 22.2066 6.91816L15.9274 0.537309C15.343 -0.0565894 14.4288 -0.0552547 13.8459 0.540423L10.4101 4.05144L10.4091 3.42519C10.4089 3.22777 10.3378 3.04231 10.2089 2.90299C10.0803 2.76386 9.90955 2.68727 9.72791 2.68727C9.72756 2.68727 9.72727 2.68727 9.72691 2.68727L7.26908 2.69102C7.08709 2.69127 6.91617 2.76843 6.78768 2.9082C6.65924 3.04797 6.58857 3.23362 6.58887 3.4311L6.59566 7.94934L3.11291 11.5082C2.81736 11.8102 2.64797 12.2189 2.63584 12.6592C2.62371 13.0994 2.77037 13.5183 3.04875 13.8388C3.32707 14.1594 3.70389 14.3432 4.10977 14.3564C4.12529 14.3569 4.14082 14.3571 4.15635 14.3571C4.54512 14.3571 4.91326 14.1989 5.19738 13.9084L6.52447 12.5523L6.52975 16.6386C6.10037 16.5708 5.66596 16.5352 5.22955 16.5352H4.49684V16.2567C4.49684 15.3217 3.79553 14.5609 2.93355 14.5609H1.56328C0.701309 14.5608 0 15.3215 0 16.2566V23.5353C0 23.7918 0.191719 23.9998 0.428203 23.9998C0.664687 23.9998 0.856406 23.7918 0.856406 23.5353V16.2566C0.856406 15.8338 1.17352 15.4898 1.56328 15.4898H2.9335C3.32326 15.4898 3.64037 15.8338 3.64037 16.2566V16.9996V26.5206V27.2563C3.64037 27.679 3.32326 28.023 2.9335 28.023H1.56328C1.17352 28.023 0.856406 27.679 0.856406 27.2563V26.4435C0.856406 26.1869 0.664687 25.979 0.428203 25.979C0.191719 25.979 0 26.1869 0 26.4435V27.2563C0 28.1913 0.701309 28.952 1.56328 28.952H2.9335C3.79547 28.952 4.49678 28.1913 4.49678 27.2563V27.1931L10.7677 29.7691C10.7793 29.7738 10.7911 29.778 10.803 29.7817C11.0757 29.8652 11.3482 29.9071 11.6173 29.9071C11.7628 29.9071 11.9074 29.8948 12.0504 29.8703L21.2661 28.4292C21.2683 28.4289 21.2704 28.4285 21.2726 28.4282C22.0561 28.2925 22.7953 27.9332 23.4101 27.3892C23.4154 27.3845 23.4207 27.3796 23.4258 27.3746L29.3796 21.566C30.0729 20.8983 30.2023 19.7678 29.6808 18.9363ZM9.55295 3.61657L9.55494 4.92525L7.45072 7.07547L7.44551 3.61968L9.55295 3.61657ZM14.8911 4.00263L22.4226 11.6559L22.4357 21.7996L21.2233 22.6797L19.9395 22.6016L19.9055 22.2317C19.7861 20.9289 18.8994 19.8808 17.727 19.6307L17.7193 13.5961C17.7187 13.133 17.3711 12.7567 16.9443 12.7567C16.9439 12.7567 16.9436 12.7567 16.9432 12.7567L12.8619 12.7629C12.6549 12.7632 12.4604 12.8509 12.3142 13.0099C12.168 13.1689 12.0877 13.3802 12.088 13.6047L12.0948 18.8662C11.2864 18.6657 10.5145 18.3346 9.79277 17.8767C9.70272 17.8195 9.61178 17.7644 9.52008 17.7107C9.48434 17.6898 9.44801 17.6702 9.41197 17.6498C9.35619 17.6182 9.30053 17.5864 9.24416 17.5561C9.19928 17.5319 9.15387 17.509 9.10863 17.4857C9.06064 17.461 9.01272 17.436 8.96438 17.4122C8.91516 17.388 8.86553 17.3649 8.81596 17.3416C8.77066 17.3204 8.72537 17.299 8.67978 17.2786C8.62881 17.2558 8.57754 17.2339 8.52621 17.2121C8.48068 17.1928 8.4351 17.1736 8.38934 17.155C8.33853 17.1344 8.2875 17.1145 8.23635 17.095C8.18836 17.0767 8.14031 17.0587 8.09203 17.0413C8.04305 17.0235 7.99395 17.0062 7.94461 16.9893C7.89205 16.9713 7.83926 16.9542 7.78641 16.9372C7.741 16.9227 7.69564 16.9082 7.65 16.8945C7.59041 16.8765 7.53053 16.8597 7.47059 16.843C7.44252 16.8352 7.41463 16.8264 7.38639 16.8188L7.37977 11.6782L14.8911 4.00263ZM16.8705 19.5145L13.2889 19.0672L12.9515 19.0251L12.9446 13.6917L16.863 13.6858L16.8705 19.5145ZM28.809 20.8734L22.8611 26.6763C22.3654 27.1122 21.7709 27.4006 21.1407 27.5103L11.929 28.9507C11.9271 28.951 11.9252 28.9513 11.9232 28.9516L11.9169 28.9527C11.6378 29.0006 11.3471 28.9804 11.0529 28.8928L4.49684 26.1997V17.4641H5.22955C5.85328 17.4641 6.47279 17.5422 7.07607 17.6939C7.09852 17.6996 7.1209 17.7054 7.14328 17.7112C7.2174 17.7306 7.29135 17.7506 7.36494 17.7722C7.37139 17.7741 7.37777 17.7761 7.38422 17.778C7.45799 17.7999 7.53146 17.823 7.60471 17.8471C7.61783 17.8514 7.63102 17.8556 7.64408 17.86C7.72201 17.8861 7.79959 17.9134 7.87676 17.942C7.88473 17.945 7.89264 17.9481 7.90061 17.951C8.06133 18.0112 8.22047 18.0769 8.37762 18.1479C8.38617 18.1518 8.39473 18.1557 8.40328 18.1596C8.48162 18.1954 8.55949 18.2323 8.63684 18.2707C8.63889 18.2717 8.641 18.2728 8.64305 18.2739C8.71781 18.3111 8.79205 18.3497 8.86582 18.3895C8.87449 18.3941 8.88322 18.3987 8.89189 18.4034C8.96397 18.4425 9.03545 18.483 9.10652 18.5244C9.11994 18.5322 9.1333 18.5402 9.14672 18.5481C9.21844 18.5905 9.28975 18.6337 9.36035 18.6785C10.3794 19.3251 11.4887 19.7439 12.6575 19.9233C12.6612 19.9239 12.6648 19.9244 12.6685 19.9249L17.4662 20.524C17.4928 20.5282 17.5191 20.5329 17.5453 20.5383C18.2516 20.6822 18.8091 21.2483 18.9956 21.9855C19.0232 22.0947 19.0427 22.2077 19.0533 22.3236L19.0724 22.5314L10.0806 21.6769C9.84516 21.6546 9.63727 21.8435 9.61664 22.099C9.59596 22.3546 9.77027 22.5799 10.0058 22.6023L19.5122 23.5058C19.5145 23.506 19.5167 23.5059 19.5189 23.5061C19.5212 23.5063 19.5233 23.5067 19.5256 23.5069L21.3184 23.616C21.3264 23.6165 21.3344 23.6167 21.3424 23.6167C21.3509 23.6167 21.3592 23.6153 21.3677 23.6147C21.3772 23.614 21.3868 23.6137 21.3963 23.6124C21.409 23.6106 21.4215 23.6076 21.4341 23.6046C21.443 23.6025 21.4521 23.6009 21.4608 23.5981C21.4746 23.5938 21.4877 23.5881 21.501 23.5823C21.5082 23.5792 21.5156 23.5768 21.5226 23.5732C21.5426 23.5632 21.562 23.5516 21.5805 23.5382L23.1023 22.4334C23.1024 22.4334 23.1025 22.4333 23.1025 22.4332L27.5968 19.1706C28.0489 18.8409 28.6662 18.9703 28.9727 19.4589C29.2529 19.9055 29.1833 20.5128 28.809 20.8734Z" fill="url(#paint0_linear)"/>
<defs>
<linearGradient id="paint0_linear" x1="-1.5894" y1="7.17366" x2="34.4475" y2="8.83357" gradientUnits="userSpaceOnUse">
<stop stop-color="#CC18BC"/>
<stop offset="1" stop-color="#FF8340"/>
</linearGradient>
</defs>
</svg>
