<svg width="30" height="30" viewBox="0 0 30 30" fill="none" xmlns="http://www.w3.org/2000/svg">
<path d="M4.92985 5.55859C5.02189 5.65259 5.14836 5.70508 5.27995 5.70361C5.3466 5.70508 5.41301 5.69336 5.47502 5.6687C5.59514 5.61523 5.69133 5.51904 5.74504 5.39868C5.76945 5.33667 5.78142 5.2705 5.77995 5.20361C5.78117 5.07226 5.72892 4.9458 5.63493 4.85376C5.58928 4.80713 5.53483 4.76977 5.47502 4.74365C5.38249 4.70923 5.28264 4.69873 5.18498 4.71362C5.15495 4.72363 5.12004 4.73364 5.09001 4.74365C5.05998 4.75366 5.02995 4.77368 5.0048 4.78882C4.95183 4.82837 4.90471 4.87573 4.86491 4.92871C4.85002 4.95361 4.83488 4.98364 4.81999 5.01367C4.80485 5.0437 4.79997 5.07861 4.78996 5.10864C4.78581 5.14013 4.7841 5.17187 4.78483 5.20361C4.78337 5.2705 4.79533 5.33667 4.81999 5.39868C4.84587 5.45874 4.88322 5.51294 4.92985 5.55859Z" fill="url(#paint0_linear)"/>
<path d="M3.87011 5.91425C3.72314 6.05487 3.67919 6.2724 3.76 6.45917C3.78417 6.51996 3.82177 6.57465 3.87011 6.61908C3.96288 6.71552 4.09106 6.76971 4.22509 6.76923C4.29028 6.76801 4.35473 6.75433 4.41503 6.72919C4.47582 6.70502 4.53051 6.66742 4.57494 6.61908C4.62157 6.57343 4.65893 6.51898 4.68505 6.45917C4.75805 6.27167 4.71508 6.05878 4.57494 5.91425C4.37743 5.7265 4.06762 5.7265 3.87011 5.91425Z" fill="url(#paint1_linear)"/>
<path d="M3.51489 6.97412C3.42261 6.87866 3.29541 6.82471 3.1626 6.82471C3.02954 6.82471 2.90234 6.87866 2.81006 6.97412C2.7605 7.01953 2.7229 7.07617 2.69995 7.13916C2.67432 7.19922 2.66089 7.26392 2.65991 7.3291C2.66138 7.46265 2.71533 7.59009 2.81006 7.68408C2.9043 7.7749 3.0293 7.82666 3.15991 7.8291C3.29248 7.82813 3.41968 7.77637 3.51489 7.68408C3.60815 7.5896 3.6604 7.46192 3.65991 7.3291C3.66089 7.26416 3.64917 7.19971 3.625 7.13916C3.60034 7.07715 3.56274 7.021 3.51489 6.97412Z" fill="url(#paint2_linear)"/>
<path d="M5.28003 7.8291C5.34692 7.82837 5.41309 7.81494 5.4751 7.78931C5.53467 7.76489 5.58911 7.72925 5.63501 7.68408C5.72827 7.5896 5.78027 7.46192 5.78003 7.3291C5.78101 7.26416 5.76904 7.19971 5.74512 7.13916C5.72021 7.07715 5.68286 7.021 5.63501 6.97412C5.54248 6.87866 5.41528 6.82471 5.28247 6.82471C5.14966 6.82471 5.02246 6.87866 4.92993 6.97412C4.88208 7.021 4.84473 7.07715 4.82007 7.13916C4.79443 7.19922 4.78076 7.26392 4.78003 7.3291C4.78198 7.60449 5.00464 7.82739 5.28003 7.8291Z" fill="url(#paint3_linear)"/>
<path d="M4.57496 8.03381C4.37647 7.84875 4.06861 7.84875 3.87013 8.03381C3.82057 8.07922 3.78297 8.13586 3.76002 8.19885C3.73438 8.25891 3.72071 8.32361 3.71998 8.38879C3.71876 8.59192 3.84059 8.77551 4.02833 8.85364C4.21583 8.93152 4.43189 8.88806 4.57496 8.74377C4.66822 8.64929 4.72047 8.52161 4.71998 8.38879C4.72096 8.32385 4.70899 8.25916 4.68507 8.19885C4.66041 8.13684 4.62281 8.08044 4.57496 8.03381Z" fill="url(#paint4_linear)"/>
<path d="M6.34504 4.64387C6.40998 4.64484 6.47468 4.63288 6.53498 4.60871C6.59504 4.58283 6.64924 4.54548 6.69514 4.49885C6.74323 4.45442 6.78083 4.39973 6.805 4.33869C6.83015 4.27863 6.84382 4.21418 6.84504 4.14875C6.84553 4.01496 6.79133 3.88679 6.69514 3.79377C6.6507 3.74568 6.59601 3.70808 6.53498 3.68366C6.34772 3.60969 6.1341 3.65266 5.99006 3.79377C5.89509 3.88728 5.84284 4.01569 5.84504 4.14875C5.84504 4.28083 5.89802 4.40754 5.99177 4.50056C6.08576 4.59358 6.21296 4.64509 6.34504 4.64387Z" fill="url(#paint5_linear)"/>
<path d="M7.21517 3.54916C7.27547 3.57308 7.34017 3.58505 7.40511 3.58407C7.53792 3.58431 7.66561 3.53231 7.76009 3.43905C7.85213 3.34359 7.90414 3.21664 7.90511 3.08407C7.90243 2.95321 7.85067 2.82821 7.76009 2.73397C7.61556 2.59383 7.40267 2.55087 7.21517 2.62411C7.15194 2.64681 7.09554 2.68466 7.05013 2.73397C7.0035 2.77987 6.96615 2.83407 6.94002 2.89413C6.9161 2.95443 6.90413 3.01913 6.90511 3.08407C6.90267 3.21713 6.95516 3.34554 7.05013 3.43905C7.09676 3.4869 7.15291 3.52425 7.21517 3.54916Z" fill="url(#paint6_linear)"/>
<path d="M3.51489 2.72902C3.37012 2.58913 3.15649 2.54811 2.96997 2.62404C2.84448 2.66945 2.74536 2.76833 2.69995 2.89406C2.67432 2.95412 2.66089 3.01857 2.65991 3.084C2.66089 3.21657 2.71289 3.34352 2.80493 3.43898C2.85474 3.48293 2.91016 3.52004 2.96997 3.54909C3.03052 3.57302 3.09497 3.58498 3.15991 3.584C3.1936 3.58571 3.22729 3.58229 3.26001 3.57399C3.29053 3.56789 3.3208 3.55959 3.3501 3.54909C3.3811 3.5342 3.41113 3.5176 3.43994 3.49904C3.46631 3.48049 3.49121 3.46047 3.51489 3.43898C3.53662 3.4153 3.55664 3.39015 3.57495 3.36403C3.59351 3.33498 3.61035 3.30495 3.625 3.27394C3.63574 3.24465 3.64404 3.21462 3.6499 3.18386C3.6582 3.15139 3.66162 3.11769 3.65991 3.084C3.66089 3.01906 3.64917 2.95436 3.625 2.89406C3.59595 2.83425 3.55908 2.77883 3.51489 2.72902Z" fill="url(#paint7_linear)"/>
<path d="M4.57495 1.669L4.5 1.60894C4.44507 1.5733 4.38403 1.54791 4.32007 1.53399C4.22266 1.51373 4.12134 1.52422 4.03003 1.56402C3.97022 1.58819 3.91602 1.62383 3.87012 1.669C3.77637 1.76373 3.72266 1.89092 3.71997 2.02398C3.72095 2.05743 3.72412 2.09087 3.72998 2.12408L3.76001 2.21392C3.77295 2.24493 3.78809 2.27496 3.80493 2.30401C3.8252 2.33013 3.84692 2.35528 3.87012 2.37896C3.91602 2.42413 3.97022 2.45977 4.03003 2.48394C4.08936 2.51202 4.1543 2.52569 4.21997 2.52398C4.25342 2.52325 4.28687 2.51983 4.32007 2.51397C4.38403 2.50005 4.44507 2.47466 4.5 2.43902C4.52612 2.42046 4.55127 2.40044 4.57495 2.37896C4.5979 2.3565 4.61817 2.33135 4.63501 2.30401C4.65357 2.2752 4.67017 2.24493 4.68506 2.21392C4.69556 2.18462 4.7041 2.1546 4.70996 2.12408C4.71826 2.09136 4.72168 2.05767 4.71997 2.02398C4.72095 1.95904 4.70899 1.89434 4.68506 1.83404C4.65772 1.77325 4.62061 1.71758 4.57495 1.669Z" fill="url(#paint8_linear)"/>
<path d="M2.45508 3.79417C2.43115 3.77122 2.40625 3.74949 2.37988 3.72923C2.35107 3.71214 2.32105 3.69725 2.29004 3.68406L2.19995 3.65428C2.10254 3.63377 2.00122 3.64427 1.90991 3.68406C1.84814 3.70945 1.79199 3.74681 1.74512 3.79417C1.6543 3.88841 1.60254 4.01341 1.6001 4.14427C1.60083 4.17772 1.60425 4.21116 1.61011 4.24412C1.62402 4.30833 1.64941 4.36912 1.68506 4.4243L1.74512 4.49925C1.79346 4.5449 1.84912 4.58201 1.90991 4.60911C1.97046 4.63328 2.03491 4.64525 2.1001 4.64427C2.13355 4.64573 2.16724 4.64256 2.19995 4.63426C2.23071 4.62816 2.26074 4.61986 2.29004 4.60911C2.32105 4.59446 2.35107 4.57786 2.37988 4.55906C2.40747 4.54222 2.43262 4.5222 2.45508 4.49925C2.47656 4.47532 2.49658 4.45042 2.51489 4.4243C2.55078 4.36912 2.57617 4.30833 2.59009 4.24412C2.5957 4.21116 2.59912 4.17772 2.6001 4.14427C2.60181 4.0786 2.58814 4.01341 2.56006 3.95408C2.53564 3.89451 2.5 3.84007 2.45508 3.79417Z" fill="url(#paint9_linear)"/>
<path d="M4.57495 3.79401C4.55127 3.77106 4.52612 3.74933 4.5 3.72907C4.47266 3.71198 4.44434 3.69708 4.41504 3.6839C4.38501 3.67414 4.3501 3.66413 4.32007 3.65412C4.22266 3.63385 4.12134 3.64435 4.03003 3.6839C3.90967 3.73761 3.81348 3.8338 3.76001 3.95392C3.73438 4.01422 3.7207 4.07868 3.71997 4.14411C3.72095 4.17755 3.72412 4.211 3.72998 4.24396C3.73999 4.27399 3.75 4.3089 3.76001 4.33893C3.77295 4.36847 3.78809 4.39679 3.80493 4.42414C3.8252 4.45026 3.84692 4.47516 3.87012 4.49909C3.91577 4.54572 3.96997 4.58307 4.03003 4.60895C4.09033 4.63312 4.15503 4.64508 4.21997 4.64411C4.25366 4.64557 4.28735 4.6424 4.32007 4.6341C4.3523 4.62799 4.38403 4.61969 4.41504 4.60895C4.44434 4.5943 4.4729 4.57746 4.5 4.5589C4.55444 4.52448 4.60059 4.47858 4.63501 4.42414C4.65357 4.39679 4.67017 4.36847 4.68506 4.33893C4.69556 4.30793 4.7041 4.27619 4.70996 4.24396C4.71826 4.21125 4.72168 4.17755 4.71997 4.14411C4.72095 4.07892 4.70899 4.01447 4.68506 3.95392C4.65894 3.89411 4.62158 3.83966 4.57495 3.79401Z" fill="url(#paint10_linear)"/>
<path d="M4.81999 3.27894C4.83488 3.30873 4.85002 3.33388 4.86491 3.36391C4.88517 3.39003 4.9069 3.41518 4.92985 3.43886C4.95134 3.46303 4.97673 3.48329 5.0048 3.49892C5.03141 3.51845 5.05998 3.53529 5.09001 3.54896C5.12101 3.55946 5.15275 3.56776 5.18498 3.57387C5.21599 3.58217 5.24797 3.58559 5.27995 3.58388C5.41301 3.5851 5.54094 3.53285 5.63493 3.43886C5.7299 3.34535 5.78215 3.21693 5.77995 3.08388C5.78166 3.05189 5.77824 3.01991 5.76994 2.98891C5.76457 2.95644 5.75627 2.9247 5.74504 2.89394C5.71769 2.83314 5.68058 2.77724 5.63493 2.7289C5.58903 2.68373 5.53459 2.64809 5.47502 2.62392C5.38371 2.58436 5.28239 2.57387 5.18498 2.59389C5.15202 2.59926 5.12004 2.60927 5.09001 2.62392C5.05925 2.63368 5.03044 2.64906 5.0048 2.66884C4.9799 2.68886 4.94987 2.70888 4.92985 2.7289C4.83659 2.82338 4.78459 2.95106 4.78483 3.08388C4.7841 3.11732 4.78581 3.15077 4.78996 3.18373C4.79997 3.21376 4.80998 3.24892 4.81999 3.27894Z" fill="url(#paint11_linear)"/>
<path d="M5.99005 2.37912C6.01153 2.40329 6.03692 2.42356 6.065 2.43918C6.09234 2.45774 6.12066 2.47434 6.14996 2.48923C6.18096 2.49973 6.2127 2.50827 6.24517 2.51413C6.27764 2.52243 6.31133 2.52585 6.34503 2.52414C6.47662 2.52536 6.60308 2.47312 6.69512 2.37912C6.74444 2.33371 6.78228 2.27732 6.80499 2.21408C6.83062 2.15403 6.84429 2.08957 6.84503 2.02414C6.84356 1.89084 6.78961 1.76316 6.69512 1.66916C6.64898 1.624 6.59478 1.58835 6.53497 1.56418C6.4439 1.52414 6.34258 1.51364 6.24517 1.53415C6.18096 1.54807 6.11993 1.57346 6.065 1.6091C6.04009 1.62912 6.01006 1.64914 5.99005 1.66916C5.89678 1.76364 5.84478 1.89133 5.84503 2.02414C5.84405 2.08908 5.85601 2.15378 5.87994 2.21408C5.90484 2.27634 5.94219 2.33249 5.99005 2.37912Z" fill="url(#paint12_linear)"/>
<path d="M3.625 5.01379C3.61133 4.98376 3.59448 4.95544 3.57495 4.92883C3.55933 4.90051 3.53906 4.87512 3.51489 4.85388C3.49121 4.83068 3.46631 4.80896 3.43994 4.78894C3.40991 4.7738 3.38501 4.75891 3.35498 4.74377C3.32495 4.72888 3.29004 4.72375 3.26001 4.71374C3.09473 4.68518 2.92578 4.73718 2.80493 4.85388C2.78491 4.8739 2.76489 4.90393 2.74512 4.92883C2.7251 4.95422 2.70996 4.98303 2.69995 5.01379C2.68555 5.04382 2.67554 5.0758 2.66992 5.10876C2.66431 5.14025 2.66089 5.17199 2.65991 5.20373C2.66016 5.27087 2.67383 5.33703 2.69995 5.3988C2.72412 5.45861 2.76001 5.51281 2.80493 5.55871C2.85352 5.60437 2.90918 5.64172 2.96997 5.66882C3.00073 5.68005 3.03271 5.68835 3.06494 5.69372C3.09595 5.70202 3.12793 5.70544 3.15991 5.70373C3.29321 5.70617 3.42163 5.65368 3.51489 5.55871C3.60913 5.46472 3.66138 5.33679 3.65991 5.20373C3.66162 5.17175 3.6582 5.13977 3.6499 5.10876C3.64404 5.07653 3.63574 5.0448 3.625 5.01379Z" fill="url(#paint13_linear)"/>
<path d="M2.56494 6.07391C2.55029 6.04461 2.53345 6.01605 2.51489 5.98895C2.49951 5.96063 2.47925 5.93524 2.45508 5.914C2.4082 5.86614 2.35205 5.82855 2.29004 5.80389C2.10254 5.72967 1.88892 5.77288 1.74512 5.914C1.7251 5.93377 1.70508 5.9638 1.68506 5.98895C1.64941 6.04388 1.62402 6.10491 1.61011 6.16888C1.60425 6.20184 1.60083 6.23529 1.6001 6.26898C1.60254 6.39959 1.6543 6.52459 1.74512 6.61883C1.83911 6.71356 1.96655 6.76751 2.1001 6.76898C2.16528 6.768 2.22998 6.75457 2.29004 6.72894C2.35303 6.70599 2.40967 6.66839 2.45508 6.61883C2.54883 6.52679 2.60132 6.40032 2.6001 6.26898C2.60156 6.23529 2.59839 6.20159 2.59009 6.16888C2.58398 6.13665 2.57568 6.10491 2.56494 6.07391V6.07391Z" fill="url(#paint14_linear)"/>
<path d="M6.34491 6.76929C6.41034 6.76832 6.47479 6.75489 6.53485 6.72925C6.65521 6.67554 6.75141 6.57935 6.80487 6.45923C6.83051 6.39918 6.84418 6.33448 6.84491 6.26929C6.8454 6.13526 6.7912 6.00709 6.69501 5.91431C6.57684 5.79713 6.40814 5.74659 6.24506 5.7793C6.21259 5.78516 6.18085 5.79346 6.14984 5.80421C6.12006 5.8191 6.09491 5.83423 6.06488 5.84913C6.0119 5.88892 5.96478 5.93604 5.92499 5.98926C5.90985 6.01929 5.89496 6.0442 5.87982 6.07422C5.86932 6.10523 5.86102 6.13697 5.85492 6.1692C5.84662 6.20191 5.8432 6.2356 5.84491 6.26929C5.84369 6.40064 5.89594 6.52711 5.98993 6.61915C6.08295 6.71558 6.21112 6.76978 6.34491 6.76929Z" fill="url(#paint15_linear)"/>
<path d="M7.05017 5.55867C7.0968 5.60652 7.15295 5.64412 7.21521 5.66878C7.27551 5.69295 7.34021 5.70467 7.40515 5.70369C7.53796 5.70418 7.66565 5.65218 7.76013 5.55867C7.8053 5.51277 7.84094 5.45857 7.86511 5.39876C7.89075 5.33699 7.90442 5.27083 7.90515 5.20369C7.90417 5.07283 7.85217 4.9471 7.76013 4.85384C7.6156 4.71346 7.40271 4.67049 7.21521 4.74373C7.15295 4.76839 7.0968 4.80598 7.05017 4.85384C6.95617 4.94588 6.90393 5.07234 6.90515 5.20369C6.90368 5.27058 6.91565 5.33675 6.94006 5.39876C6.96618 5.45882 7.00354 5.51302 7.05017 5.55867Z" fill="url(#paint16_linear)"/>
<path d="M8.27502 4.60905C8.33557 4.63322 8.40002 4.64518 8.46521 4.6442C8.66614 4.64323 8.84705 4.52213 8.92444 4.33683C9.00183 4.15128 8.96082 3.93766 8.82019 3.79411C8.67566 3.65397 8.46277 3.611 8.27502 3.684C8.21204 3.70695 8.1554 3.74479 8.11023 3.79411C7.91638 3.98917 7.91638 4.30412 8.11023 4.49918C8.15686 4.54704 8.21301 4.58439 8.27502 4.60905Z" fill="url(#paint17_linear)"/>
<path d="M29.6819 28.9361L27.3911 27.8021C26.5367 27.3831 25.9964 26.513 26 25.5616V25.1656C25.9988 23.9088 25.3257 22.7486 24.2351 22.1241L21.5325 20.5811C21.7403 20.0308 21.6075 19.41 21.1924 18.993L20.8279 18.6285C21.2925 18.0567 21.2713 17.2318 20.7781 16.6846L12.336 7.34552L13.0606 6.62091C13.1543 6.52716 13.2071 6.39996 13.2071 6.26715C13.2071 6.13458 13.1543 6.00738 13.0606 5.91363L11.6465 4.49957C11.5528 4.40582 11.4256 4.35309 11.293 4.35309C11.1963 4.35577 11.1023 4.38727 11.0235 4.44342C10.4644 1.75274 8.00491 -0.112246 5.26321 0.0754982C2.52151 0.262998 0.338894 2.44537 0.151394 5.18732C-0.0361065 7.92901 1.82888 10.3885 4.51956 10.9476C4.46341 11.0264 4.43191 11.1202 4.42898 11.2171C4.42898 11.3497 4.48172 11.4769 4.57547 11.5706L5.98953 12.9844C6.08328 13.0784 6.21048 13.1312 6.34329 13.1312C6.4761 13.1312 6.6033 13.0784 6.69705 12.9844L7.42093 12.2601L16.7625 20.7034C17.3076 21.2012 18.136 21.2227 18.7061 20.7535L19.0711 21.1185C19.5462 21.597 20.2842 21.6951 20.8679 21.3575L23.7395 22.9971C24.5174 23.4422 24.9981 24.2691 25 25.1656V25.5616C24.9951 26.8943 25.7527 28.1126 26.95 28.6981L29.241 29.8321C29.3098 29.8655 29.3855 29.8826 29.4619 29.8819C29.6961 29.8841 29.9002 29.7239 29.9534 29.4962C30.0069 29.2684 29.895 29.034 29.6846 28.9319L29.6819 28.9361ZM2.45413 2.37799C3.70877 1.12311 5.58401 0.722959 7.24173 1.35626C8.89944 1.98932 10.0303 3.53766 10.1289 5.30963L9.87893 5.55963C10.0471 5.39093 10.073 5.12726 9.9407 4.92901C9.80862 4.73102 9.5552 4.65362 9.33499 4.74396C9.2742 4.7713 9.21853 4.80841 9.16995 4.85406C9.07815 4.94732 9.02615 5.07306 9.02493 5.20392C9.02566 5.23761 9.02908 5.27106 9.03494 5.30401C9.04056 5.33697 9.05056 5.36896 9.06497 5.39899C9.07498 5.42975 9.09012 5.45856 9.11014 5.48395C9.12747 5.5108 9.14773 5.53595 9.16995 5.5589C9.26468 5.65265 9.39187 5.70636 9.52493 5.70904C9.65799 5.70709 9.7847 5.65314 9.87845 5.5589L8.82058 6.617C8.91238 6.5235 8.96414 6.39801 8.96512 6.26691C8.96389 6.20001 8.95022 6.13409 8.92508 6.07208C8.90091 6.01227 8.86502 5.95807 8.8201 5.91192C8.67556 5.77179 8.46267 5.72882 8.27493 5.80206C8.21292 5.82672 8.15677 5.86432 8.11013 5.91192C8.06497 5.95807 8.02932 6.01227 8.00491 6.07208C7.97976 6.13409 7.96634 6.20001 7.96512 6.26691C7.96609 6.39801 8.01809 6.5235 8.11013 6.617C8.1553 6.66632 8.21194 6.70416 8.27493 6.72711C8.33523 6.75275 8.39969 6.76617 8.46512 6.76691C8.59817 6.7652 8.72513 6.71149 8.81912 6.617L7.76907 7.66705C7.8533 7.57403 7.90139 7.45367 7.90408 7.32794C7.90335 7.26275 7.88968 7.19806 7.86404 7.138C7.84109 7.07623 7.8052 7.02008 7.75906 6.97296C7.70926 6.92901 7.65384 6.89191 7.59402 6.8631C7.4722 6.81305 7.33572 6.81305 7.21414 6.8631C7.08938 6.91437 6.99026 7.01324 6.93899 7.138C6.89236 7.26031 6.89236 7.39557 6.93899 7.51813C6.96804 7.5777 7.00491 7.63336 7.0491 7.68292C7.09597 7.72931 7.15213 7.76495 7.21414 7.7879C7.2742 7.81354 7.33865 7.82721 7.40408 7.82794C7.52957 7.82525 7.64993 7.7774 7.74295 7.69293L6.69314 8.74298C6.78738 8.64923 6.84134 8.52203 6.84304 8.38898C6.84231 8.32379 6.82864 8.25909 6.80301 8.19903C6.78006 8.13605 6.74246 8.07941 6.69314 8.034C6.49661 7.84332 6.18435 7.84332 5.98806 8.034C5.94021 8.08063 5.90286 8.13702 5.87796 8.19903C5.85403 8.25934 5.84207 8.32403 5.84304 8.38898C5.84256 8.52179 5.8948 8.64947 5.98806 8.74396C6.03396 8.78912 6.08841 8.82477 6.14798 8.84894C6.20999 8.87433 6.27615 8.88776 6.34304 8.88898C6.47415 8.88824 6.59964 8.83649 6.69314 8.74444L5.63504 9.80255C5.72927 9.7088 5.78299 9.58185 5.78494 9.44903C5.7825 9.31573 5.72879 9.18878 5.63504 9.09405C5.61209 9.07159 5.58694 9.05157 5.56009 9.034C5.53445 9.01422 5.50564 8.99908 5.47512 8.98907C5.44485 8.97443 5.41287 8.96442 5.37991 8.95904C5.21707 8.92853 5.04934 8.97882 4.92996 9.09405C4.8843 9.14239 4.84719 9.1983 4.8201 9.25909C4.79446 9.31915 4.78079 9.38361 4.78006 9.44903C4.77908 9.65167 4.90042 9.83478 5.08743 9.9129C5.27468 9.99078 5.49026 9.9483 5.63357 9.80499L5.38357 10.055C3.61111 9.95612 2.06253 8.82477 1.42971 7.16632C0.796901 5.50787 1.19802 3.63238 2.45413 2.37799ZM6.34353 11.9241L5.63601 11.2171L11.293 5.56012L12 6.26739L11.293 6.97394L6.34353 11.9241ZM17.4331 19.9615L8.12893 11.5521L11.6289 8.05206L20.0376 17.357C20.2161 17.5547 20.2085 17.8577 20.02 18.046L18.1201 19.9461C17.9314 20.1326 17.6299 20.1395 17.4331 19.9615V19.9615ZM19.7781 20.4114L19.4246 20.0579L20.1321 19.3504L20.4851 19.7039C20.6804 19.8992 20.6804 20.2159 20.4854 20.4112C20.2901 20.6068 19.9734 20.6068 19.7781 20.4114V20.4114Z" fill="url(#paint18_linear)"/>
<path d="M29.792 2.01836C29.6619 1.92437 29.4944 1.89873 29.342 1.94927L23.342 3.94927C23.1377 4.01738 23 4.20855 23 4.42388V8.70171C22.6973 8.52178 22.3521 8.42583 22 8.42388C20.8955 8.42388 20 9.31914 20 10.4239C20 11.5284 20.8955 12.4239 22 12.4239C23.1045 12.4239 24 11.5284 24 10.4239V4.78423L29 3.11724V6.70171C28.6973 6.52178 28.3521 6.42583 28 6.42388C26.8955 6.42388 26 7.31914 26 8.42388C26 9.52837 26.8955 10.4239 28 10.4239C29.1045 10.4239 30 9.52837 30 8.42388V2.42388C30 2.26299 29.9224 2.11211 29.792 2.01836ZM22 11.4239C21.4478 11.4239 21 10.9761 21 10.4239C21 9.87139 21.4478 9.42388 22 9.42388C22.5522 9.42388 23 9.87139 23 10.4239C23 10.9761 22.5522 11.4239 22 11.4239ZM28 9.42388C27.4478 9.42388 27 8.97612 27 8.42388C27 7.87139 27.4478 7.42388 28 7.42388C28.5523 7.42388 29 7.87139 29 8.42388C29 8.97612 28.5523 9.42388 28 9.42388Z" fill="url(#paint19_linear)"/>
<path d="M10.3625 18.4435L3.36255 20.4435C3.14795 20.505 3 20.7011 3 20.9242V26.2021C2.69727 26.0221 2.35205 25.9262 2 25.9242C0.895508 25.9242 0 26.8195 0 27.9242C0 29.0287 0.895508 29.9242 2 29.9242C3.10449 29.9242 4 29.0287 4 27.9242V23.3022L10 21.599V24.2021C9.69727 24.0221 9.35205 23.9262 9 23.9242C7.89551 23.9242 7 24.8195 7 25.9242C7 27.0287 7.89551 27.9242 9 27.9242C10.1045 27.9242 11 27.0287 11 25.9242V18.9242C11 18.7672 10.9263 18.6195 10.801 18.5251C10.6758 18.4306 10.5134 18.4005 10.3625 18.4435ZM2 28.9242C1.44775 28.9242 1 28.4765 1 27.9242C1 27.3717 1.44775 26.9242 2 26.9242C2.55225 26.9242 3 27.3717 3 27.9242C3 28.4765 2.55225 28.9242 2 28.9242ZM4 22.2626V21.3012L10 19.5871V20.5602L4 22.2626ZM9 26.9242C8.44775 26.9242 8 26.4765 8 25.9242C8 25.3717 8.44775 24.9242 9 24.9242C9.55225 24.9242 10 25.3717 10 25.9242C10 26.4765 9.55225 26.9242 9 26.9242Z" fill="url(#paint20_linear)"/>
<defs>
<linearGradient id="paint0_linear" x1="4.73193" y1="4.94375" x2="5.92768" y2="4.99841" gradientUnits="userSpaceOnUse">
<stop stop-color="#CC18BC"/>
<stop offset="1" stop-color="#FF8340"/>
</linearGradient>
<linearGradient id="paint1_linear" x1="3.66698" y1="6.00994" x2="4.86841" y2="6.06518" gradientUnits="userSpaceOnUse">
<stop stop-color="#CC18BC"/>
<stop offset="1" stop-color="#FF8340"/>
</linearGradient>
<linearGradient id="paint2_linear" x1="2.60693" y1="7.06325" x2="3.80828" y2="7.11801" gradientUnits="userSpaceOnUse">
<stop stop-color="#CC18BC"/>
<stop offset="1" stop-color="#FF8340"/>
</linearGradient>
<linearGradient id="paint3_linear" x1="4.72705" y1="7.06325" x2="5.9284" y2="7.11801" gradientUnits="userSpaceOnUse">
<stop stop-color="#CC18BC"/>
<stop offset="1" stop-color="#FF8340"/>
</linearGradient>
<linearGradient id="paint4_linear" x1="3.66699" y1="8.13176" x2="4.86831" y2="8.18693" gradientUnits="userSpaceOnUse">
<stop stop-color="#CC18BC"/>
<stop offset="1" stop-color="#FF8340"/>
</linearGradient>
<linearGradient id="paint5_linear" x1="5.79199" y1="3.88449" x2="6.99331" y2="3.93971" gradientUnits="userSpaceOnUse">
<stop stop-color="#CC18BC"/>
<stop offset="1" stop-color="#FF8340"/>
</linearGradient>
<linearGradient id="paint6_linear" x1="6.85204" y1="2.82524" x2="8.05338" y2="2.8805" gradientUnits="userSpaceOnUse">
<stop stop-color="#CC18BC"/>
<stop offset="1" stop-color="#FF8340"/>
</linearGradient>
<linearGradient id="paint7_linear" x1="2.60691" y1="2.82345" x2="3.80867" y2="2.8786" gradientUnits="userSpaceOnUse">
<stop stop-color="#CC18BC"/>
<stop offset="1" stop-color="#FF8340"/>
</linearGradient>
<linearGradient id="paint8_linear" x1="3.66697" y1="1.76147" x2="4.86874" y2="1.8165" gradientUnits="userSpaceOnUse">
<stop stop-color="#CC18BC"/>
<stop offset="1" stop-color="#FF8340"/>
</linearGradient>
<linearGradient id="paint9_linear" x1="1.54711" y1="3.88168" x2="2.74855" y2="3.93665" gradientUnits="userSpaceOnUse">
<stop stop-color="#CC18BC"/>
<stop offset="1" stop-color="#FF8340"/>
</linearGradient>
<linearGradient id="paint10_linear" x1="3.66697" y1="3.88164" x2="4.86875" y2="3.93665" gradientUnits="userSpaceOnUse">
<stop stop-color="#CC18BC"/>
<stop offset="1" stop-color="#FF8340"/>
</linearGradient>
<linearGradient id="paint11_linear" x1="4.73192" y1="2.82156" x2="5.92805" y2="2.87606" gradientUnits="userSpaceOnUse">
<stop stop-color="#CC18BC"/>
<stop offset="1" stop-color="#FF8340"/>
</linearGradient>
<linearGradient id="paint12_linear" x1="5.79199" y1="1.76158" x2="6.99332" y2="1.81654" gradientUnits="userSpaceOnUse">
<stop stop-color="#CC18BC"/>
<stop offset="1" stop-color="#FF8340"/>
</linearGradient>
<linearGradient id="paint13_linear" x1="2.60691" y1="4.9431" x2="3.80867" y2="4.99824" gradientUnits="userSpaceOnUse">
<stop stop-color="#CC18BC"/>
<stop offset="1" stop-color="#FF8340"/>
</linearGradient>
<linearGradient id="paint14_linear" x1="1.5471" y1="6.00578" x2="2.74878" y2="6.06076" gradientUnits="userSpaceOnUse">
<stop stop-color="#CC18BC"/>
<stop offset="1" stop-color="#FF8340"/>
</linearGradient>
<linearGradient id="paint15_linear" x1="5.79148" y1="6.00698" x2="6.99326" y2="6.06202" gradientUnits="userSpaceOnUse">
<stop stop-color="#CC18BC"/>
<stop offset="1" stop-color="#FF8340"/>
</linearGradient>
<linearGradient id="paint16_linear" x1="6.85204" y1="4.94487" x2="8.05342" y2="5.00013" gradientUnits="userSpaceOnUse">
<stop stop-color="#CC18BC"/>
<stop offset="1" stop-color="#FF8340"/>
</linearGradient>
<linearGradient id="paint17_linear" x1="7.91196" y1="3.88532" x2="9.11106" y2="3.94037" gradientUnits="userSpaceOnUse">
<stop stop-color="#CC18BC"/>
<stop offset="1" stop-color="#FF8340"/>
</linearGradient>
<linearGradient id="paint18_linear" x1="-1.44188" y1="7.14461" x2="34.3896" y2="8.78532" gradientUnits="userSpaceOnUse">
<stop stop-color="#CC18BC"/>
<stop offset="1" stop-color="#FF8340"/>
</linearGradient>
<linearGradient id="paint19_linear" x1="19.4702" y1="4.41759" x2="31.4852" y2="4.94139" gradientUnits="userSpaceOnUse">
<stop stop-color="#CC18BC"/>
<stop offset="1" stop-color="#FF8340"/>
</linearGradient>
<linearGradient id="paint20_linear" x1="-0.582781" y1="21.1555" x2="12.6334" y2="21.7342" gradientUnits="userSpaceOnUse">
<stop stop-color="#CC18BC"/>
<stop offset="1" stop-color="#FF8340"/>
</linearGradient>
</defs>
</svg>
