<svg width="30" height="30" viewBox="0 0 30 30" fill="none" xmlns="http://www.w3.org/2000/svg">
<g clip-path="url(#clip0)">
<path d="M29.4133 25.3124H25.3119V21.5541C26.0109 20.9558 26.6915 20.2156 27.1926 19.4212C27.8391 18.3966 28.1009 17.3965 27.9568 16.5143C29.0387 15.7132 30.274 14.254 29.9463 12.8613C29.7742 12.1298 29.1697 11.5231 28.4419 11.3517C27.7918 11.1986 27.1238 11.3753 26.6405 11.8247C26.2744 11.4841 25.802 11.3005 25.3118 11.298V2.93011C25.3118 2.14421 25.0034 1.40519 24.4435 0.849152C23.8869 0.296395 23.1531 -0.00500222 22.3751 0.000564023H10.5466C10.223 0.000564023 9.96065 0.262939 9.96065 0.586484C9.96065 0.91003 10.223 1.1724 10.5466 1.1724H22.3793C22.8449 1.16731 23.2845 1.34959 23.6179 1.68075C23.9546 2.01508 24.1401 2.45879 24.1401 2.93011V11.6751C23.7448 11.9599 23.4472 12.3835 23.3349 12.8613C23.2206 13.3472 23.2949 13.8832 23.5483 14.4365C23.3502 14.5558 23.1641 14.6993 22.9954 14.8675C22.9422 14.9204 22.8719 14.951 22.808 14.9514C22.7387 14.951 22.6684 14.9205 22.6152 14.8675C21.9026 14.1572 20.8884 13.8718 19.902 14.1041C18.8327 14.356 17.9443 15.2478 17.6913 16.3234C17.4731 17.2508 17.7244 18.322 18.4179 19.4212C19.5414 21.202 21.5663 22.7129 22.6809 22.9552C22.7219 22.9641 22.7636 22.9686 22.8053 22.9686C22.847 22.9686 22.8887 22.9641 22.9298 22.9552C23.2667 22.8819 23.6869 22.6922 24.1401 22.4147V25.3124H9.96065C9.80526 25.3124 9.6562 25.3741 9.54634 25.484C9.43648 25.5939 9.37473 25.7429 9.37473 25.8983V27.0701C9.37473 28.0393 8.58619 28.8278 7.61696 28.8278C6.64773 28.8278 5.8592 28.0393 5.8592 27.0701V2.93011C5.8592 2.27112 5.64036 1.66235 5.27176 1.1724H5.27328C5.59689 1.1724 5.8592 0.91003 5.8592 0.586484C5.8592 0.262939 5.59689 0.000564023 5.27328 0.000564023H2.93189C2.93113 0.000564023 2.93036 0.000505431 2.9296 0.000505431C1.31422 0.000505431 0 1.31472 0 2.93011V4.10195C0 4.42549 0.262317 4.68787 0.58592 4.68787H4.68736V27.0701C4.68736 28.6855 6.00158 29.9997 7.61696 29.9997H27.0696C28.685 29.9997 29.9992 28.6855 29.9992 27.0701V25.8984C29.9992 25.5747 29.7369 25.3124 29.4133 25.3124V25.3124ZM24.4755 13.1296C24.5471 12.8252 24.8072 12.5631 25.1079 12.4923C25.3835 12.4276 25.6661 12.5062 25.8635 12.703C26.0719 12.9108 26.3469 13.026 26.6434 13.0274C26.9343 13.026 27.2093 12.9108 27.4177 12.703C27.6152 12.5063 27.8977 12.4276 28.1733 12.4923C28.474 12.5631 28.734 12.8252 28.8056 13.1296C28.9534 13.7578 28.3031 14.7079 27.5064 15.3778C27.0898 14.7504 26.4418 14.2768 25.7086 14.1041C25.3582 14.0216 25.0044 14.0056 24.6617 14.0496C24.5121 13.7603 24.4055 13.4273 24.4755 13.1296V13.1296ZM22.8053 21.7758C21.9996 21.5136 20.3462 20.2814 19.409 18.7959C19.0449 18.2189 18.6493 17.3681 18.8319 16.5917C18.9832 15.9486 19.5337 15.3947 20.1706 15.2447C20.3061 15.2129 20.4424 15.1972 20.5772 15.1972C21.0283 15.1972 21.4619 15.3723 21.788 15.6974C21.788 15.6975 21.788 15.6975 21.788 15.6975C22.0617 15.9702 22.422 16.1214 22.8079 16.1232C23.1885 16.1215 23.5488 15.9703 23.8225 15.6974C24.2435 15.2779 24.8626 15.1089 25.4399 15.2447C26.0768 15.3947 26.6272 15.9486 26.7785 16.5917C26.9612 17.3681 26.5656 18.2189 26.2015 18.7959C25.7192 19.5603 25.0474 20.2571 24.399 20.7897C24.3705 20.8089 24.3441 20.8308 24.3194 20.8545C23.7364 21.3229 23.1794 21.6541 22.8053 21.7758V21.7758ZM4.68736 3.51603H1.17184V2.93011C1.17184 1.96111 1.95996 1.17276 2.92884 1.17235C2.92907 1.17235 2.92937 1.1724 2.9296 1.1724H2.93183C3.90006 1.17364 4.68736 1.96164 4.68736 2.93011V3.51603ZM27.0696 28.8279H9.9593C10.3278 28.338 10.5466 27.7291 10.5466 27.0701V26.4843H28.8273V27.0701C28.8273 28.0394 28.0388 28.8279 27.0696 28.8279V28.8279Z" fill="#fff"/>
<path d="M7.61693 15.2324H11.4123C11.7359 15.2324 11.9982 14.97 11.9982 14.6465C11.9982 14.3229 11.7359 14.0605 11.4123 14.0605H7.61693C7.29332 14.0605 7.03101 14.3229 7.03101 14.6465C7.03101 14.97 7.29332 15.2324 7.61693 15.2324Z" fill="#fff"/>
<path d="M7.61693 17.7719H14.769C15.0926 17.7719 15.3549 17.5096 15.3549 17.186C15.3549 16.8625 15.0926 16.6001 14.769 16.6001H7.61693C7.29332 16.6001 7.03101 16.8625 7.03101 17.186C7.03101 17.5096 7.29332 17.7719 7.61693 17.7719Z" fill="#fff"/>
<path d="M7.61693 20.312H11.1159C11.4395 20.312 11.7018 20.0496 11.7018 19.7261C11.7018 19.4025 11.4395 19.1401 11.1159 19.1401H7.61693C7.29332 19.1401 7.03101 19.4025 7.03101 19.7261C7.03101 20.0496 7.29332 20.312 7.61693 20.312Z" fill="#fff"/>
<path d="M7.61693 22.8515H14.769C15.0926 22.8515 15.3549 22.5892 15.3549 22.2656C15.3549 21.9421 15.0926 21.6797 14.769 21.6797H7.61693C7.29332 21.6797 7.03101 21.9421 7.03101 22.2656C7.03101 22.5892 7.29332 22.8515 7.61693 22.8515Z" fill="#fff"/>
<path d="M22.3821 3.51611H18.1672C17.8436 3.51611 17.5813 3.77849 17.5813 4.10203C17.5813 4.42558 17.8436 4.68795 18.1672 4.68795H22.3821C22.7057 4.68795 22.968 4.42558 22.968 4.10203C22.968 3.77849 22.7057 3.51611 22.3821 3.51611V3.51611Z" fill="#fff"/>
<path d="M22.3822 6.29736H19.5898C19.2662 6.29736 19.0039 6.55974 19.0039 6.88328C19.0039 7.20683 19.2662 7.4692 19.5898 7.4692H22.3822C22.7058 7.4692 22.9681 7.20683 22.9681 6.88328C22.9681 6.55974 22.7058 6.29736 22.3822 6.29736Z" fill="#fff"/>
<path d="M8.64538 6.66157C8.55134 7.37358 8.76737 8.16997 9.27941 8.98164C10.1878 10.4215 11.8336 11.6451 12.7424 11.8427C12.7834 11.8516 12.8252 11.8561 12.8669 11.8561C12.9087 11.8561 12.9504 11.8517 12.9914 11.8427C13.9003 11.6451 15.546 10.4215 16.4544 8.98164C17.023 8.08038 17.2279 7.19763 17.047 6.42879C16.8358 5.53086 16.094 4.78628 15.2011 4.57611C14.3766 4.38181 13.5287 4.62052 12.9329 5.21447C12.913 5.23439 12.888 5.24581 12.8695 5.24593C12.8459 5.24581 12.8209 5.23439 12.8011 5.21453C12.6858 5.09968 12.561 4.99844 12.4289 4.91073C12.6071 4.48048 12.6538 4.06231 12.5635 3.67836C12.4165 3.05383 11.9002 2.53587 11.2787 2.38945C10.7587 2.26699 10.2252 2.39139 9.81998 2.72272C9.41493 2.39144 8.88139 2.26699 8.36127 2.38945C7.73979 2.53587 7.22347 3.05383 7.07652 3.67836C6.80882 4.81581 7.77248 5.99474 8.64538 6.66157V6.66157ZM12.8694 6.41771C13.2037 6.41631 13.52 6.28371 13.7601 6.04442V6.04436C14.0668 5.73851 14.5051 5.616 14.9325 5.71672C15.3957 5.8257 15.7961 6.22887 15.9062 6.69708C16.0418 7.27327 15.7402 7.91738 15.4633 8.35629C14.7272 9.52297 13.4533 10.4444 12.8669 10.6601C12.2805 10.4443 11.0066 9.52297 10.2705 8.35629C9.99359 7.91738 9.69195 7.27327 9.82754 6.69708C9.93769 6.22887 10.3381 5.8257 10.8013 5.71666C10.8998 5.69346 10.9987 5.68215 11.0965 5.68215C11.2138 5.68215 11.3293 5.69914 11.4402 5.73095C11.4488 5.73371 11.4573 5.73611 11.4659 5.73846C11.6544 5.79693 11.8288 5.89999 11.9736 6.04442C12.2138 6.28371 12.5302 6.41631 12.8694 6.41771V6.41771ZM8.21713 3.94665C8.26325 3.75072 8.43685 3.57547 8.6298 3.53C8.80798 3.48829 8.99031 3.53862 9.1174 3.66535C9.30566 3.85314 9.55426 3.95714 9.82244 3.95831C10.0855 3.95714 10.3341 3.85314 10.5222 3.66553C10.6494 3.53873 10.8319 3.48835 11.0099 3.53C11.203 3.57547 11.3766 3.75078 11.4226 3.94665C11.4591 4.10163 11.4232 4.29908 11.3212 4.52039C11.0619 4.4966 10.7961 4.51394 10.5327 4.57605C9.96511 4.7097 9.45917 5.05972 9.11119 5.52741C8.55404 5.0275 8.11841 4.36629 8.21713 3.94665V3.94665Z" fill="#fff"/>
<path d="M7.91009 1.17236C8.2337 1.17236 8.49603 0.90998 8.49603 0.586426C8.49603 0.262871 8.2337 0.000488281 7.91009 0.000488281H7.90968C7.58606 0.000488281 7.32397 0.262871 7.32397 0.586426C7.32397 0.90998 7.58648 1.17236 7.91009 1.17236Z" fill="#fff"/>
</g>
<defs>
<linearGradient id="paint0_linear" x1="-1.5894" y1="7.12531" x2="34.4484" y2="8.77502" gradientUnits="userSpaceOnUse">
<stop stop-color="#CC18BC"/>
<stop offset="1" stop-color="#FF8340"/>
</linearGradient>
<linearGradient id="paint1_linear" x1="6.76784" y1="14.3389" x2="12.5303" y2="15.457" gradientUnits="userSpaceOnUse">
<stop stop-color="#CC18BC"/>
<stop offset="1" stop-color="#FF8340"/>
</linearGradient>
<linearGradient id="paint2_linear" x1="6.59001" y1="16.8784" x2="15.652" y2="19.825" gradientUnits="userSpaceOnUse">
<stop stop-color="#CC18BC"/>
<stop offset="1" stop-color="#FF8340"/>
</linearGradient>
<linearGradient id="paint3_linear" x1="6.78354" y1="19.4184" x2="12.225" y2="20.4113" gradientUnits="userSpaceOnUse">
<stop stop-color="#CC18BC"/>
<stop offset="1" stop-color="#FF8340"/>
</linearGradient>
<linearGradient id="paint4_linear" x1="6.59001" y1="21.958" x2="15.652" y2="24.9046" gradientUnits="userSpaceOnUse">
<stop stop-color="#CC18BC"/>
<stop offset="1" stop-color="#FF8340"/>
</linearGradient>
<linearGradient id="paint5_linear" x1="17.2959" y1="3.79443" x2="23.5054" y2="5.10104" gradientUnits="userSpaceOnUse">
<stop stop-color="#CC18BC"/>
<stop offset="1" stop-color="#FF8340"/>
</linearGradient>
<linearGradient id="paint6_linear" x1="18.7939" y1="6.57568" x2="23.4542" y2="7.29735" gradientUnits="userSpaceOnUse">
<stop stop-color="#CC18BC"/>
<stop offset="1" stop-color="#FF8340"/>
</linearGradient>
<linearGradient id="paint7_linear" x1="6.49697" y1="4.60256" x2="18.6025" y2="5.18974" gradientUnits="userSpaceOnUse">
<stop stop-color="#CC18BC"/>
<stop offset="1" stop-color="#FF8340"/>
</linearGradient>
<linearGradient id="paint8_linear" x1="7.26188" y1="0.278809" x2="8.66982" y2="0.343268" gradientUnits="userSpaceOnUse">
<stop stop-color="#CC18BC"/>
<stop offset="1" stop-color="#FF8340"/>
</linearGradient>
<clipPath id="clip0">
<rect width="30" height="30" fill="white"/>
</clipPath>
</defs>
</svg>
