<svg width="52" height="45" viewBox="0 0 52 45" fill="none" xmlns="http://www.w3.org/2000/svg">
<g clip-path="url(#clip0)">
<circle cx="25.5" cy="22.5" r="15.5" fill="url(#paint0_linear)"/>
<path d="M25.0542 6.29468C16.3163 6.29468 9.20758 13.5438 9.20758 22.4542C9.20758 31.3647 16.3163 38.6138 25.0542 38.6138C33.7922 38.6138 40.9009 31.3647 40.9009 22.4542C40.9009 13.5438 33.7922 6.29468 25.0542 6.29468ZM25.0542 37.0942C17.1381 37.0942 10.6978 30.5268 10.6978 22.4542C10.6978 14.3817 17.1381 7.81434 25.0542 7.81434C32.9704 7.81434 39.4106 14.3818 39.4106 22.4542C39.4106 30.5267 32.9704 37.0942 25.0542 37.0942Z" fill="white"/>
<path d="M25.7994 21.8742V15.9501C28.234 16.1496 29.8728 17.3046 29.8728 18.3511C29.8728 18.7707 30.2064 19.111 30.618 19.111C31.0295 19.111 31.3631 18.7708 31.3631 18.3511C31.3631 16.2937 28.9732 14.6512 25.7994 14.4269V13.5387C25.7994 13.1191 25.4658 12.7788 25.0542 12.7788C24.6427 12.7788 24.3091 13.119 24.3091 13.5387V14.4269C21.1352 14.6512 18.7453 16.2937 18.7453 18.3511C18.7453 21.1073 21.3153 22.1828 24.3091 23.0344V28.9585C21.8745 28.7589 20.2356 27.604 20.2356 26.5575C20.2356 26.1379 19.902 25.7976 19.4905 25.7976C19.079 25.7976 18.7453 26.1378 18.7453 26.5575C18.7453 28.6149 21.1352 30.2574 24.3091 30.4817V31.3699C24.3091 31.7895 24.6426 32.1298 25.0542 32.1298C25.4657 32.1298 25.7994 31.7896 25.7994 31.3699V30.4817C28.9732 30.2574 31.3631 28.6149 31.3631 26.5575C31.363 23.8013 28.7932 22.7259 25.7994 21.8742ZM24.3091 21.4517C21.2869 20.5411 20.2356 19.7141 20.2356 18.3511C20.2356 17.3046 21.8745 16.1496 24.3091 15.9501V21.4517ZM25.7994 28.9585V23.4569C28.8215 24.3675 29.8728 25.1945 29.8728 26.5575C29.8728 27.604 28.234 28.759 25.7994 28.9585Z" fill="white"/>
<path d="M41.3177 5.8696C36.9736 1.4396 31.1977 -1 25.0542 -1C18.4404 -1 12.265 1.83787 7.89776 6.83333L8.30592 3.91988C8.36404 3.5044 8.08095 3.1196 7.67359 3.06023C7.26606 3.00132 6.88881 3.28964 6.83059 3.70495L6.03574 9.37857C5.99927 9.63922 6.09774 9.90061 6.29593 10.0695C6.43195 10.1852 6.6014 10.2459 6.77354 10.2459C6.85242 10.2459 6.93202 10.2332 7.00911 10.2069L11.778 8.58589C12.1685 8.45314 12.3794 8.0229 12.2493 7.62473C12.1191 7.22656 11.6972 7.01126 11.3068 7.1441L8.91083 7.95858C13.0005 3.21635 18.8193 0.519667 25.0542 0.519667C30.7996 0.519667 36.2012 2.80123 40.264 6.9441C44.3266 11.0871 46.564 16.5952 46.564 22.4542C46.564 28.3132 44.3266 33.8213 40.264 37.9643C36.2012 42.1072 30.7997 44.3887 25.0542 44.3887C24.6427 44.3887 24.3091 44.7289 24.3091 45.1486C24.3091 45.5682 24.6427 45.9085 25.0542 45.9085C31.1977 45.9085 36.9736 43.4689 41.3177 39.0389C45.6617 34.6089 48.0542 28.719 48.0542 22.4542C48.0542 16.1894 45.6619 10.2994 41.3177 5.8696Z" fill="url(#paint1_linear)"/>
<path d="M21.9805 44.1664C21.7272 44.1294 21.472 44.0875 21.2222 44.0417C20.817 43.9672 20.4297 44.242 20.3569 44.6551C20.284 45.0681 20.5533 45.4632 20.9584 45.5375C21.2257 45.5865 21.4986 45.6314 21.7695 45.6709C21.8052 45.6761 21.8408 45.6787 21.8759 45.6787C22.2407 45.6787 22.5595 45.4052 22.6127 45.0264C22.6708 44.6109 22.3879 44.226 21.9805 44.1664Z" fill="url(#paint2_linear)"/>
<path d="M18.3387 43.2989C17.8697 43.1418 17.3998 42.9657 16.942 42.7755C16.5611 42.6174 16.1262 42.8038 15.9707 43.1926C15.8155 43.5812 15.9986 44.0247 16.3797 44.1831C16.8694 44.3865 17.3721 44.5748 17.874 44.7428C17.9511 44.7687 18.0295 44.781 18.1066 44.781C18.4198 44.781 18.7113 44.5779 18.8145 44.2579C18.9427 43.859 18.7297 43.4298 18.3387 43.2989Z" fill="url(#paint3_linear)"/>
<path d="M4.03905 27.1532C3.93385 26.6614 3.84418 26.1594 3.77258 25.661C3.71283 25.2457 3.33477 24.9588 2.92742 25.0193C2.52016 25.0801 2.23841 25.466 2.29815 25.8811C2.37479 26.4142 2.47056 26.9511 2.58314 27.4771C2.65923 27.8326 2.96776 28.0752 3.31042 28.0752C3.36307 28.0752 3.41653 28.0695 3.46998 28.0576C3.87194 27.9681 4.12683 27.5632 4.03905 27.1532Z" fill="url(#paint4_linear)"/>
<path d="M3.78812 15.7009C3.39164 15.5898 2.98132 15.8279 2.87243 16.2327C2.73263 16.7519 2.60901 17.2832 2.50497 17.8116C2.42393 18.2231 2.68529 18.6236 3.08877 18.7063C3.13837 18.7165 3.1876 18.7213 3.2363 18.7213C3.5839 18.7213 3.89503 18.4718 3.96601 18.111C4.06331 17.617 4.17894 17.1202 4.30957 16.6347C4.41837 16.23 4.18505 15.8119 3.78812 15.7009Z" fill="url(#paint5_linear)"/>
<path d="M5.43754 31.4655C5.23449 31.0067 5.04474 30.5346 4.8735 30.0626C4.73074 29.669 4.30201 29.4679 3.91613 29.6136C3.53016 29.7592 3.33304 30.1963 3.4758 30.5899C3.6589 31.0947 3.86186 31.5996 4.0791 32.0906C4.20345 32.3718 4.47469 32.538 4.75877 32.538C4.86119 32.538 4.96532 32.5163 5.06478 32.4706C5.43997 32.298 5.60672 31.848 5.43754 31.4655Z" fill="url(#paint6_linear)"/>
<path d="M2.88445 20.3149C2.47314 20.2894 2.12059 20.6089 2.09598 21.0279C2.0683 21.4998 2.0542 21.9797 2.0542 22.4549C2.0542 22.5197 2.05447 22.5844 2.05501 22.649C2.05824 23.0666 2.3912 23.4029 2.80008 23.4029C2.80197 23.4029 2.80404 23.4029 2.80601 23.4029C3.2175 23.3996 3.54848 23.0567 3.54534 22.637C3.54489 22.5759 3.54453 22.5148 3.54453 22.4543C3.54453 22.0099 3.55773 21.5607 3.5837 21.1189C3.60841 20.7001 3.2953 20.3401 2.88445 20.3149Z" fill="url(#paint7_linear)"/>
<path d="M14.2725 41.4386C13.8458 41.186 13.4217 40.9146 13.012 40.6319C12.6711 40.3967 12.208 40.4877 11.9773 40.8352C11.7466 41.1828 11.8359 41.6551 12.1766 41.8903C12.6145 42.1927 13.0681 42.4828 13.5244 42.7529C13.6421 42.8226 13.7707 42.8557 13.8978 42.8557C14.1547 42.8557 14.4047 42.72 14.543 42.4771C14.7496 42.1143 14.6285 41.6493 14.2725 41.4386Z" fill="url(#paint8_linear)"/>
<path d="M7.68137 35.3905C7.38983 34.9839 7.10853 34.562 6.84502 34.1357C6.62562 33.7808 6.16553 33.6743 5.8173 33.8983C5.46915 34.1221 5.36493 34.5913 5.58442 34.9463C5.86608 35.4019 6.16688 35.8531 6.47855 36.2877C6.62454 36.4912 6.85104 36.5989 7.0805 36.5989C7.23323 36.5989 7.38723 36.5512 7.51984 36.4523C7.85208 36.2045 7.9244 35.7292 7.68137 35.3905Z" fill="url(#paint9_linear)"/>
<path d="M10.6697 38.7627C10.3025 38.4257 9.94202 38.0712 9.59837 37.7093C9.31213 37.4078 8.84054 37.4 8.54477 37.692C8.2491 37.9839 8.24146 38.4649 8.52779 38.7664C8.89507 39.1533 9.28032 39.5322 9.67276 39.8923C9.81525 40.0231 9.9935 40.0874 10.171 40.0874C10.3749 40.0874 10.5779 40.0025 10.7251 39.8359C11.0004 39.5238 10.9755 39.0434 10.6697 38.7627Z" fill="url(#paint10_linear)"/>
<path d="M5.26089 12.0414C4.88903 11.8614 4.44457 12.0228 4.26803 12.4017C4.15105 12.6527 4.03704 12.9092 3.92905 13.1643C3.76589 13.5494 3.93992 13.9967 4.31771 14.1631C4.41403 14.2054 4.5142 14.2256 4.61276 14.2256C4.90107 14.2256 5.17572 14.0539 5.29719 13.7669C5.39817 13.5285 5.50473 13.2885 5.61416 13.0538C5.7907 12.6747 5.63258 12.2215 5.26089 12.0414Z" fill="url(#paint11_linear)"/>
</g>
<defs>
<linearGradient id="paint0_linear" x1="8.35762" y1="14.3625" x2="45.5967" y2="16.0672" gradientUnits="userSpaceOnUse">
<stop stop-color="#CC18BC"/>
<stop offset="1" stop-color="#FF8340"/>
</linearGradient>
<linearGradient id="paint1_linear" x1="3.80172" y1="10.1408" x2="54.3067" y2="12.212" gradientUnits="userSpaceOnUse">
<stop stop-color="#CC18BC"/>
<stop offset="1" stop-color="#FF8340"/>
</linearGradient>
<linearGradient id="paint2_linear" x1="20.2244" y1="44.4212" x2="22.9525" y2="44.5935" gradientUnits="userSpaceOnUse">
<stop stop-color="#CC18BC"/>
<stop offset="1" stop-color="#FF8340"/>
</linearGradient>
<linearGradient id="paint3_linear" x1="15.7599" y1="43.2089" x2="19.2796" y2="43.4384" gradientUnits="userSpaceOnUse">
<stop stop-color="#CC18BC"/>
<stop offset="1" stop-color="#FF8340"/>
</linearGradient>
<linearGradient id="paint4_linear" x1="2.19659" y1="25.7389" x2="4.32121" y2="25.795" gradientUnits="userSpaceOnUse">
<stop stop-color="#CC18BC"/>
<stop offset="1" stop-color="#FF8340"/>
</linearGradient>
<linearGradient id="paint5_linear" x1="2.39243" y1="16.3974" x2="4.61296" y2="16.459" gradientUnits="userSpaceOnUse">
<stop stop-color="#CC18BC"/>
<stop offset="1" stop-color="#FF8340"/>
</linearGradient>
<linearGradient id="paint6_linear" x1="3.31942" y1="30.272" x2="5.81389" y2="30.3517" gradientUnits="userSpaceOnUse">
<stop stop-color="#CC18BC"/>
<stop offset="1" stop-color="#FF8340"/>
</linearGradient>
<linearGradient id="paint7_linear" x1="1.97309" y1="21.0472" x2="3.81497" y2="21.089" gradientUnits="userSpaceOnUse">
<stop stop-color="#CC18BC"/>
<stop offset="1" stop-color="#FF8340"/>
</linearGradient>
<linearGradient id="paint8_linear" x1="11.7011" y1="41.0604" x2="15.0553" y2="41.2427" gradientUnits="userSpaceOnUse">
<stop stop-color="#CC18BC"/>
<stop offset="1" stop-color="#FF8340"/>
</linearGradient>
<linearGradient id="paint9_linear" x1="5.34468" y1="34.4503" x2="8.17628" y2="34.5586" gradientUnits="userSpaceOnUse">
<stop stop-color="#CC18BC"/>
<stop offset="1" stop-color="#FF8340"/>
</linearGradient>
<linearGradient id="paint10_linear" x1="8.18027" y1="38.0977" x2="11.3017" y2="38.24" gradientUnits="userSpaceOnUse">
<stop stop-color="#CC18BC"/>
<stop offset="1" stop-color="#FF8340"/>
</linearGradient>
<linearGradient id="paint11_linear" x1="3.77145" y1="12.504" x2="5.95767" y2="12.5846" gradientUnits="userSpaceOnUse">
<stop stop-color="#CC18BC"/>
<stop offset="1" stop-color="#FF8340"/>
</linearGradient>
<clipPath id="clip0">
<rect width="52" height="45" fill="white"/>
</clipPath>
</defs>
</svg>
